<?xml version="1.0" standalone="no"?>
<!DOCTYPE svg PUBLIC "-//W3C//DTD SVG 1.1//EN" "http://www.w3.org/Graphics/SVG/1.1/DTD/svg11.dtd" >
<!--
2018-3-1: Created with FontForge (http://fontforge.org)
-->
<svg xmlns="http://www.w3.org/2000/svg" xmlns:xlink="http://www.w3.org/1999/xlink" version="1.1">
<metadata>
Created by FontForge 20160405 at Thu Mar  1 17:53:48 2018
 By Apache
Copyright (c) 2018, Apache
</metadata>
<defs>
<font id="Flaticon" horiz-adv-x="512" >
  <font-face 
    font-family="Flaticon"
    font-weight="400"
    font-stretch="normal"
    units-per-em="512"
    panose-1="2 0 5 3 0 0 0 0 0 0"
    ascent="448"
    descent="-64"
    bbox="-0.00196537 -64.0114 512.001 448"
    underline-thickness="25.6"
    underline-position="-51.2"
    unicode-range="U+0020-F12C"
  />
    <missing-glyph />
    <glyph glyph-name="space" unicode=" " horiz-adv-x="200" 
 />
    <glyph glyph-name="uniF105" unicode="&#xf105;" 
d="M447.453 22.3164c-0.0537109 -0.0800781 -0.0537109 -0.167969 -0.124023 -0.238281c-0.105469 -0.15918 -0.291016 -0.203125 -0.40625 -0.353516c-45.0732 -50.4941 -109.815 -83.0146 -182.068 -85.4951l-0.00878906 -0.00878906l-4.9707 -0.132812
c-1.28809 -0.0439453 -2.57715 -0.0878906 -3.875 -0.0878906s-2.58691 0.0439453 -3.88379 0.0791016l-4.9707 0.132812l-0.00878906 0.00878906c-72.1738 2.47168 -136.845 34.9307 -181.919 85.3184c-0.166992 0.203125 -0.396484 0.30957 -0.555664 0.530273
c-0.0615234 0.0791016 -0.0615234 0.166992 -0.115234 0.24707c-40.1123 45.2061 -64.5469 104.633 -64.5469 169.684c0 67.6807 26.4473 129.263 69.5 175.077c0.00878906 0.00878906 0.00878906 0.0175781 0.00878906 0.0175781
c0.0263672 0.0537109 0.0791016 0.0712891 0.114258 0.115234c44.835 47.6602 107.652 78.168 177.522 80.5605l0.00878906 0.00878906l4.9707 0.132812c1.28809 0.0439453 2.57715 0.0878906 3.875 0.0878906s2.58691 -0.0439453 3.875 -0.0878906l4.98828 -0.132812
l0.00878906 -0.00878906c69.8701 -2.39258 132.688 -32.9004 177.522 -80.5605c0.0263672 -0.0439453 0.0791016 -0.0615234 0.114258 -0.115234v-0.00878906c43.0439 -45.8232 69.4912 -107.405 69.4912 -175.086c0 -65.0508 -24.4346 -124.478 -64.5469 -169.684z
M17.876 183.173c2.0127 -54.8193 22.5986 -104.97 55.6758 -144.313c22.4922 15.2012 46.4941 27.3828 71.6006 36.4668c-13.0117 34.0654 -20.3213 70.4258 -21.3193 107.847h-105.957zM78.3711 350.693c-35.8926 -40.1211 -58.3857 -92.4248 -60.4951 -149.866h105.957
c1.07715 40.2539 9.33984 79.3428 24.2764 115.598c-24.3906 8.54492 -47.7754 19.9854 -69.7383 34.2686zM494.124 200.827c-2.10938 57.4414 -24.6025 109.745 -60.4951 149.866c-21.9629 -14.2832 -45.3477 -25.7236 -69.7383 -34.2686
c14.9365 -36.2549 23.1992 -75.3438 24.2764 -115.598h105.957zM247.173 315.913v108.747c-31.6211 -27.5869 -56.8857 -60.7168 -74.7793 -97.4219c24.2061 -6.79688 49.2588 -10.6016 74.7793 -11.3252zM247.173 298.258c-28.0635 0.75 -55.6143 5.00488 -82.1504 12.6943
c-14.3975 -34.5166 -22.4482 -71.7422 -23.5342 -110.125h105.685v97.4307zM264.827 298.258v-97.4307h105.693c-1.08594 38.3828 -9.13672 75.6084 -23.5342 110.125c-26.5449 -7.69824 -54.0957 -11.9443 -82.1592 -12.6943zM264.827 315.913
c25.5205 0.723633 50.5732 4.52832 74.7793 11.3252c-17.8936 36.7051 -43.1582 69.835 -74.7793 97.4219v-108.747zM356.714 332.605c22.4844 7.75977 44.0586 18.1406 64.3975 31.0469c-35.8223 34.4629 -82.335 57.8389 -134.029 64.6006
c29.1396 -27.7451 52.6738 -60.1162 69.6318 -95.6475zM155.286 332.605c16.958 35.5312 40.4922 67.9023 69.6406 95.6475c-51.6943 -6.76172 -98.2158 -30.1377 -134.029 -64.6006c20.3301 -12.9062 41.9043 -23.2871 64.3887 -31.0469zM141.488 183.173
c0.998047 -35.4785 7.98047 -69.9502 20.4004 -102.215c27.4893 8.27148 56.0908 12.8262 85.2842 13.6035v88.6113h-105.685zM247.173 76.9062c-26.8271 -0.759766 -53.1162 -4.9082 -78.4248 -12.3682c18.0439 -39.7939 44.5791 -75.6699 78.4248 -105.198v117.566z
M264.827 -40.6602c33.8457 29.5283 60.3809 65.4043 78.4248 105.207c-25.3086 7.45117 -51.5977 11.6084 -78.4248 12.3594v-117.566zM264.827 94.5615c29.1934 -0.777344 57.7949 -5.33203 85.2754 -13.6123c12.4287 32.2734 19.4111 66.7451 20.4092 102.224h-105.685
v-88.6113zM388.167 183.173c-0.998047 -37.4209 -8.29785 -73.7812 -21.3193 -107.847c25.1064 -9.08398 49.1084 -21.2656 71.6006 -36.4668c33.0859 39.3438 53.6631 89.4941 55.6758 144.313h-105.957zM85.5479 25.6357
c36.4756 -37.3584 85.0713 -62.7822 139.37 -69.8887c-31.1963 29.7051 -55.8428 64.7773 -73.0127 103.266c-23.2344 -8.34277 -45.4707 -19.5 -66.3574 -33.377zM287.082 -44.2529c54.2988 7.10645 102.895 32.5303 139.37 69.8887
c-20.8955 13.877 -43.123 25.0342 -66.3574 33.377c-17.1699 -38.4971 -41.8164 -73.5693 -73.0127 -103.266z" />
    <glyph glyph-name="uniF11E" unicode="&#xf11e;" 
d="M77.3369 107.34v-127.757l182.785 -0.37207v-19.7383l-202.508 0.452148v188.25zM348.597 315.636v0l-81.3613 -0.0166016v89.1699h-189.898v-34.8691h-19.7227v54.6074h230.329l80.4082 -80.1338v-38.959h-19.7549v10.2012zM286.957 397.644v-62.2861h61.6396v0.84082z
M482.901 288.72c10.0557 -1.84277 29.082 -11.1387 29.0986 -32.9941v-296.124h-236.859v296.107c0 24.5234 16.9893 33.2207 31.5068 33.2207c1.17969 0 2.08496 -0.0644531 2.60254 -0.0966797zM496.142 -23.8447h0.0488281v279.586
c0 12.2373 -12.4961 15.875 -15.4385 16.5537l-172.763 0.0488281c-0.0810547 0 -0.582031 0.0478516 -1.3418 0.0478516c-15.6807 0 -15.6807 -12.5605 -15.6807 -16.666v-279.57h205.175zM309.396 139.445v20.6758h74.6367v-20.6758h-74.6367zM402.93 139.445v20.6758
h74.6699v-20.6758h-74.6699zM310.269 89.7197v31.7812h30.0352v-31.7812h-30.0352zM354.659 89.7197v31.7812h30.0684v-31.7812h-30.0684zM400.667 89.7197v31.7812h30.0518v-31.7812h-30.0518zM447.79 89.7197v31.7812h30.0361v-31.7812h-30.0361zM310.269 45.0381v31.7979
h30.0518v-31.7979h-30.0518zM354.659 45.0381v31.7979h30.084v-31.7979h-30.084zM399.777 45.0381v31.7979h30.0684v-31.7979h-30.0684zM446.917 45.0381v31.7979h30.0361v-31.7979h-30.0361zM309.25 0.387695v31.7656h30.0361v-31.7656h-30.0361zM353.673 0.387695v31.7656
h30.0684v-31.7656h-30.0684zM400.667 0.387695v31.7656h30.0518v-31.7656h-30.0518zM446.917 0.387695v31.7656h30.0195v-31.7656h-30.0195zM477.6 244.651v-61.0576h-168.35v61.0576h168.35zM400.877 198.127v30.2295h-6.74121
c-0.0488281 -1.24414 -0.355469 -2.29492 -0.856445 -3.15234c-0.485352 -0.84082 -1.14844 -1.53516 -1.94043 -2.03711c-0.807617 -0.500977 -1.68066 -0.856445 -2.68359 -1.08301c-0.985352 -0.209961 -2.00391 -0.306641 -3.03906 -0.274414v-6.25586h6.72559v-17.4268
h8.53516zM434.55 198.127h-0.0644531v7.3877h-12.9648v0.0488281c1.3418 0.87207 2.76465 1.71289 4.23535 2.52148c1.50391 0.808594 2.86133 1.69727 4.07422 2.71582c1.24414 1.00195 2.24707 2.15039 3.03906 3.49219c0.807617 1.3252 1.19629 2.95801 1.19629 4.89746
c0 1.58496 -0.291016 2.99121 -0.857422 4.20312c-0.533203 1.19629 -1.3418 2.18262 -2.35938 2.97461c-1.01855 0.759766 -2.26367 1.37402 -3.70215 1.76172c-1.42285 0.404297 -3.02344 0.598633 -4.73633 0.598633c-1.9082 0 -3.6377 -0.291016 -5.18945 -0.873047
s-2.87793 -1.43848 -3.91211 -2.55371c-1.06738 -1.08398 -1.85938 -2.47363 -2.37695 -4.09082c-0.516602 -1.63184 -0.726562 -3.49121 -0.614258 -5.56055h7.74414c-0.0654297 1.84277 0.242188 3.33008 0.888672 4.49414
c0.646484 1.09961 1.76172 1.69727 3.42676 1.69727c0.954102 0 1.77832 -0.258789 2.44141 -0.791992s1.00195 -1.50391 1.00195 -2.89355c0 -0.533203 -0.0966797 -1.03516 -0.387695 -1.47168c-0.274414 -0.435547 -0.614258 -0.824219 -0.986328 -1.17969
c-0.404297 -0.355469 -0.807617 -0.678711 -1.27637 -0.954102c-0.453125 -0.291016 -0.873047 -0.548828 -1.21289 -0.791992c-0.888672 -0.56543 -1.82715 -1.13184 -2.78027 -1.74609c-0.969727 -0.614258 -1.8916 -1.21191 -2.78027 -1.89062
c-0.873047 -0.646484 -1.73047 -1.3418 -2.52246 -2.08594c-0.759766 -0.743164 -1.45508 -1.56738 -2.05273 -2.4248c-0.727539 -1.01855 -1.27734 -2.14941 -1.63281 -3.39453c-0.355469 -1.26074 -0.517578 -2.60254 -0.419922 -4.08984h24.7812zM461.32 204.254
c0.388672 1.09863 0.566406 2.11719 0.46875 3.02246c0 1.13184 -0.113281 2.08594 -0.338867 2.8291c-0.210938 0.791992 -0.517578 1.42285 -0.857422 1.92383c-0.338867 0.517578 -0.710938 0.905273 -1.11523 1.17969
c-0.419922 0.275391 -0.808594 0.501953 -1.14746 0.663086c-0.339844 0.162109 -0.630859 0.291016 -0.857422 0.339844c-0.225586 0.0478516 -0.338867 0.113281 -0.338867 0.161133v0.0488281c0 0.0322266 0.209961 0.0966797 0.582031 0.194336
c0.404297 0.0800781 0.856445 0.323242 1.3252 0.727539c0.46875 0.40332 0.905273 1.03418 1.29297 1.89062c0.388672 0.857422 0.598633 2.08594 0.598633 3.68652c0 0.629883 -0.194336 1.38965 -0.56543 2.29492c-0.37207 0.905273 -0.986328 1.74609 -1.84375 2.57031
c-0.87207 0.808594 -1.98828 1.47168 -3.41016 2.05273c-1.40723 0.582031 -3.15234 0.857422 -5.23828 0.857422c-1.61621 0 -3.13574 -0.226562 -4.57422 -0.646484c-1.40723 -0.420898 -2.66797 -1.05078 -3.7666 -1.8916
c-1.08398 -0.873047 -1.95605 -1.94043 -2.58691 -3.24902c-0.646484 -1.30957 -0.954102 -2.86133 -0.986328 -4.65625h7.72754c-0.0166016 0.630859 0.0644531 1.19629 0.274414 1.64941c0.226562 0.484375 0.500977 0.839844 0.857422 1.17969
c0.338867 0.323242 0.743164 0.549805 1.26074 0.710938c0.516602 0.162109 1.03418 0.243164 1.58398 0.243164c0.387695 0 0.84082 -0.0488281 1.29297 -0.145508c0.436523 -0.113281 0.857422 -0.243164 1.19629 -0.453125
c0.37207 -0.193359 0.663086 -0.484375 0.889648 -0.824219c0.225586 -0.339844 0.338867 -0.759766 0.338867 -1.22852c0 -0.56543 -0.0966797 -1.05078 -0.338867 -1.40625c-0.258789 -0.355469 -0.582031 -0.630859 -0.954102 -0.84082
c-0.37207 -0.194336 -0.808594 -0.323242 -1.26074 -0.387695c-0.436523 -0.0488281 -0.921875 -0.0810547 -1.32617 -0.0810547c-0.56543 0 -1.03418 0.0322266 -1.38965 0.0810547c-0.37207 0.0322266 -0.710938 0.0800781 -1.00195 0.0966797v-5.90039
c0.291016 0.0644531 0.646484 0.113281 0.985352 0.145508c0.339844 0.0644531 0.791992 0.0810547 1.42285 0.0810547c0.436523 0 0.9375 -0.0654297 1.39062 -0.113281c0.452148 -0.0644531 0.873047 -0.226562 1.22852 -0.46875
c0.355469 -0.243164 0.629883 -0.53418 0.856445 -0.9375c0.226562 -0.404297 0.339844 -0.954102 0.339844 -1.61719c0 -1.24414 -0.323242 -2.13379 -1.01855 -2.63477s-1.61719 -0.759766 -2.78027 -0.759766c-0.727539 0 -1.39062 0.0966797 -1.98926 0.306641
c-0.597656 0.194336 -1.08301 0.549805 -1.4541 1.03516c-0.776367 0.791992 -1.16406 1.98828 -1.09961 3.62109h-7.80762c-0.0166016 -0.37207 -0.0166016 -0.9375 -0.0166016 -1.64941c0 -0.726562 0.113281 -1.53516 0.339844 -2.4248
c0.225586 -0.888672 0.597656 -1.77734 1.11523 -2.69922c0.500977 -0.905273 1.21191 -1.74609 2.16602 -2.50586c0.954102 -0.743164 2.15039 -1.3418 3.65332 -1.84277c1.4873 -0.46875 3.29785 -0.710938 5.43164 -0.710938
c2.31152 0 4.25195 0.338867 5.82031 0.985352c1.55176 0.647461 2.78027 1.47168 3.70117 2.40918c0.921875 0.986328 1.55176 1.98828 1.92383 3.08789zM184.014 15.8584l-69.3184 64.6631l-86.6318 179.908l-0.0966797 -0.0322266l-27.9668 58.0664l68.2676 32.8652
l27.9668 -58.0674l-0.128906 -0.0478516l87.0195 -181.38zM143.374 81.2812l-26.5605 11.0898l3.94434 -8.21289l38.9111 -36.1133l16.9092 8.14746l-0.46875 54.7852l-2.86133 5.90039l-9.18262 -25.6387l-18.6553 10.5078zM29.1953 290.385l42.8555 20.5947
l-10.3623 21.4844l-42.8389 -20.6113z" />
    <glyph glyph-name="uniF12B" unicode="&#xf12b;" 
d="M507.173 288.199l-105.216 -101.454l-21.5859 22.877l79.627 76.7842c7.7002 7.42676 7.91016 19.6807 0.484375 27.3818l-71.0859 73.7178c-3.60059 3.71289 -8.44336 5.82812 -13.6104 5.9082c-5.11816 0.113281 -10.0742 -1.83984 -13.7871 -5.4082l-62.7549 -60.4941
l54.4883 -56.4268c4.45605 -4.66504 4.10059 -12.3506 -0.56543 -16.8867c-3.27734 -3.13281 -8.07227 -4.11719 -12.1406 -2.79297l-79.0449 83.8076l103.424 99.8232c6.28027 5.98926 16.3545 5.65039 22.377 -0.597656l119.552 -123.928
c6.02246 -6.23145 6.02246 -16.29 -0.161133 -22.3115zM149.985 -12.5791l89.0381 85.7773l21.5693 -22.877l-114.095 -109.979c-6.2002 -6.05371 -16.3066 -5.71484 -22.3125 0.516602l-119.552 124.009c-5.99023 6.21582 -5.99023 16.3057 0.209961 22.3281
l115.822 111.608l60.5273 -64.2559c-0.452148 -2.16309 -1.58203 -4.2627 -3.30957 -5.94141c-4.68262 -4.50391 -12.0771 -4.35938 -16.5654 0.338867l-32.6924 33.9043l-8.70215 -8.41113l32.6934 -33.9365c4.48828 -4.69824 4.40723 -12.0605 -0.291016 -16.5488
c-4.63379 -4.45605 -12.0605 -4.29395 -16.5645 0.338867l-32.6611 33.9365l-8.71777 -8.41113l32.6768 -33.9199c4.52051 -4.69824 4.40723 -12.0439 -0.242188 -16.5811c-4.69824 -4.45605 -12.0928 -4.29492 -16.5645 0.338867l-32.6934 33.9688l-8.70215 -8.41113
l32.6445 -34.0176c4.52051 -4.68164 4.42383 -12.0596 -0.242188 -16.5156c-4.66504 -4.45605 -12.0596 -4.32715 -16.5645 0.338867l-32.6934 33.9688c-7.7002 -7.49121 -7.89453 -19.6318 -0.484375 -27.333l71.0859 -73.75
c3.58398 -3.66504 8.47656 -5.7793 13.626 -5.87598c5.11816 -0.129883 10.0908 1.82422 13.7559 5.3916zM358.883 292.122c-15.0791 15.5801 -14.627 40.5391 1.00098 55.5703c15.5469 15.0635 40.4912 14.6113 55.5215 -0.984375
c15.0801 -15.6123 14.5469 -40.5723 -1.00098 -55.5713c-15.5146 -15.0625 -40.458 -14.6104 -55.5215 0.985352zM375.754 308.396c6.07031 -6.23145 16.0801 -6.40918 22.4092 -0.371094c6.24805 6.05469 6.42578 16.0967 0.355469 22.3604
c-6.05469 6.26465 -16.0967 6.47461 -22.3613 0.419922c-6.26367 -6.05371 -6.45703 -16.0957 -0.40332 -22.4092zM439.252 107.087l-102.892 -96.9502l-229.304 243.303l102.923 96.9492zM227.238 282.548c0.0478516 2.3252 -0.791016 4.61719 -2.43848 6.3291
l-11.2041 11.8506c-3.32617 3.53516 -8.92773 3.71289 -12.4961 0.371094l-6.07031 -5.69922c-3.56836 -3.32617 -3.71387 -8.97656 -0.387695 -12.4961l11.1396 -11.9307c1.66309 -1.71191 3.85938 -2.74512 6.23242 -2.76074
c2.34082 -0.0976562 12.415 8.12012 12.415 8.12012c1.71191 1.63086 2.71289 3.85938 2.80957 6.21582zM386.522 104.325c3.60059 3.3584 3.72949 8.97656 0.355469 12.5293l-128.819 136.665c-1.61426 1.74414 -3.81055 2.74512 -6.2002 2.79297
c-2.30859 0.0810547 -4.61719 -0.806641 -6.3125 -2.38867l-6.08594 -5.74805c-3.56836 -3.3418 -3.72949 -8.92773 -0.37207 -12.4961l128.804 -136.682c1.67871 -1.71191 3.84277 -2.74512 6.24805 -2.80957c2.35742 -0.0800781 4.63379 0.807617 6.36133 2.42188z
M96.6426 264.53l-26.5576 28.1729l102.874 96.998l26.5742 -28.1885zM24.2168 341.428c-5.60156 5.94141 -8.57227 13.7715 -8.34668 21.9092c0.258789 8.12012 3.69727 15.7734 9.62207 21.3428l58.3154 54.9414c12.2705 11.6562 31.6436 11.0586 43.252 -1.24316
l36.1484 -38.3438l-102.891 -96.9502zM42.5742 362.529l18.8887 -20.084l62.3682 58.7666l-18.9385 20.0527zM491.447 -31.4033c1.75977 -5.58691 0.162109 -11.6729 -4.06836 -15.6768c-4.26172 -4.02051 -10.4297 -5.19922 -15.8701 -3.11621l-122.119 46.5938
l102.777 96.9824zM458.819 10.4756l-15.4512 49.0645l-59.752 -56.3613l48.0791 -18.3408z" />
    <glyph glyph-name="uniF128" unicode="&#xf128;" 
d="M500.418 69.623c4.1582 -0.802734 7.16797 -4.44043 7.17676 -8.66895v-24.4521c0 -4.35156 -3.18652 -8.05957 -7.48535 -8.72168l-13.374 -2.05664c-6.0293 -0.926758 -10.8848 -4.66113 -13.3115 -10.2402c-2.43652 -5.58789 -1.87207 -11.6875 1.54492 -16.7285
l7.27344 -10.7432c2.375 -3.50391 1.9248 -8.2002 -1.06836 -11.1934l-17.2842 -17.293c-3.07227 -3.08984 -7.94434 -3.46875 -11.4668 -0.882812l-7.67188 5.63184c-4.95215 3.62891 -11.2812 4.3877 -16.957 2.04883
c-5.65918 -2.34863 -9.60449 -7.3623 -10.5312 -13.4365l-1.44824 -9.40137c-0.662109 -4.30762 -4.36914 -7.48535 -8.72168 -7.48535h-24.4521c-4.2373 0 -7.87402 3.00977 -8.67773 7.15039l-2.44531 12.7471c-1.14746 5.97656 -5.05762 10.6816 -10.7344 12.9062
c-5.64941 2.24219 -11.7314 1.42969 -16.6396 -2.16309l-10.9111 -8.00684c-3.54004 -2.56836 -8.39453 -2.18945 -11.4668 0.882812l-17.2842 17.293c-2.99316 2.99316 -3.44336 7.69824 -1.06836 11.1934l7.27344 10.7432c3.41699 5.0498 3.98145 11.1406 1.54492 16.7285
c-2.43652 5.5791 -7.28223 9.31348 -13.3115 10.2402l-13.374 2.05664c-4.30762 0.662109 -7.48535 4.37012 -7.48535 8.72168v24.4521c0 4.22852 3.00977 7.86523 7.16797 8.66895l12.7471 2.44531c5.97559 1.14746 10.6807 5.05859 12.9053 10.7344
c2.2334 5.66699 1.43945 11.7314 -2.16211 16.6396l-8.00684 10.9111c-2.57812 3.52246 -2.20703 8.38672 0.882812 11.4668l17.293 17.2852c3.00098 2.99219 7.68848 3.4248 11.1934 1.06738l13.877 -9.39258c4.93457 -3.33691 10.9111 -3.97168 16.4189 -1.66797
c5.5 2.27734 9.30469 6.93848 10.4258 12.7822l3.16016 16.4639c0.794922 4.15723 4.44043 7.16797 8.66895 7.16797h24.4521c4.35254 0 8.05957 -3.17871 8.71289 -7.47754l2.05664 -13.374c0.926758 -6.02832 4.66113 -10.8838 10.2402 -13.3115
c5.59668 -2.43652 11.6875 -1.87988 16.7285 1.54492l10.7432 7.27344c3.50391 2.35742 8.2002 1.9248 11.1934 -1.06738l17.293 -17.2852c3.08984 -3.08008 3.46094 -7.95312 0.882812 -11.4668l-8.00684 -10.9111c-3.60156 -4.9082 -4.39551 -10.9727 -2.16211 -16.6396
c2.22461 -5.67578 6.92969 -9.58691 12.9053 -10.7344zM489.931 44.0674h0.00878906v9.58691l-5.58789 1.06836c-11.873 2.28613 -21.6006 10.3721 -26.0146 21.6182c-4.41406 11.2637 -2.78906 23.7998 4.36133 33.5449l3.52148 4.80273l-6.7793 6.7793l-4.70508 -3.18652
c-10.002 -6.78027 -22.5986 -7.94531 -33.6768 -3.10742c-11.0791 4.82812 -18.7939 14.8477 -20.6309 26.7998l-0.90918 5.88867h-9.58594l-1.77441 -9.30469c-2.2334 -11.6084 -10.0908 -21.2393 -21.0098 -25.7676c-10.9199 -4.51074 -23.3047 -3.2666 -33.0771 3.36328
l-7.84766 5.31445l-6.7793 -6.7793l3.52148 -4.80273c7.1416 -9.75488 8.77441 -22.29 4.36133 -33.5449c-4.41406 -11.2461 -14.1328 -19.332 -26.0156 -21.6182l-5.58691 -1.06836v-9.58691l5.8877 -0.900391c11.9434 -1.83594 21.9717 -9.55176 26.8008 -20.6299
c4.82812 -11.0791 3.67188 -23.667 -3.10742 -33.6777l-3.1875 -4.70508l6.78027 -6.7793l4.80176 3.52246c9.75488 7.13281 22.2812 8.76562 33.5449 4.36035c11.2461 -4.41406 19.333 -14.1328 21.6191 -26.0146l1.06836 -5.58789h9.58594l0.291992 1.92383
c1.87988 12.209 9.80664 22.3252 21.2305 27.0566c11.4229 4.72363 24.1787 3.16992 34.1533 -4.12207l1.5625 -1.14746l6.7793 6.7793l-3.18652 4.70508c-6.7793 10.002 -7.94434 22.5898 -3.10742 33.6777c4.8291 11.0781 14.8486 18.7939 26.8008 20.6299z
M392.827 94.8965c24.3379 0 44.1387 -19.7998 44.1387 -44.1377s-19.8008 -44.1377 -44.1387 -44.1377c-24.3369 0 -44.1377 19.7998 -44.1377 44.1377s19.8008 44.1377 44.1377 44.1377zM392.827 24.2754c14.6016 0 26.4834 11.8828 26.4834 26.4834
s-11.8818 26.4824 -26.4834 26.4824c-14.6006 0 -26.4824 -11.8818 -26.4824 -26.4824s11.8818 -26.4834 26.4824 -26.4834zM247.173 -19.8623c4.88086 0 8.82715 -3.94531 8.82715 -8.82715s-3.94629 -8.82812 -8.82715 -8.82812
c-6.67383 0 -13.2598 0.344727 -19.7832 0.882812c-0.793945 0.0712891 -1.59766 0.115234 -2.39258 0.185547c-6.54102 0.591797 -13.0029 1.47461 -19.3936 2.57812c-0.547852 0.0966797 -1.08594 0.194336 -1.62402 0.291016
c-20.5859 3.7168 -40.2715 10.0107 -58.7129 18.582c-0.423828 0.194336 -0.838867 0.371094 -1.25293 0.56543c-5.65918 2.66504 -11.1846 5.56934 -16.5967 8.65039c-1.08496 0.618164 -2.1709 1.23633 -3.24805 1.87207
c-4.94336 2.92188 -9.78125 6.00195 -14.4951 9.25098c-1.45605 0.99707 -2.88672 2.03906 -4.31641 3.07227c-4.41406 3.18652 -8.74805 6.47949 -12.9326 9.94824c-0.50293 0.423828 -1.05957 0.777344 -1.57129 1.20898l-7.87402 6.63867l0.229492 0.203125
c-48.3926 44.4023 -78.7949 108.129 -78.7949 178.829c0 133.853 108.905 242.759 242.759 242.759c133.853 0 242.758 -108.906 242.758 -242.759c0 -4.88184 -3.94531 -8.82715 -8.82715 -8.82715s-8.82812 3.94531 -8.82812 8.82715
c0 124.125 -100.979 225.104 -225.103 225.104c-124.125 0 -225.104 -100.979 -225.104 -225.104c0 -66.4014 28.9189 -126.164 74.8135 -167.406c2.20703 1.58008 4.41406 2.99219 6.63867 4.20215l69.7998 38.0732c6.3291 3.45996 10.2568 10.0811 10.2568 17.2842
v25.5469c-5.4375 7.18652 -20.1533 28.3896 -27.3037 56.3994c-7.46777 6.11816 -11.8291 15.1836 -11.8291 24.9033v31.2939c0 7.65332 2.81641 15.0771 7.83008 20.9121v41.1982c-0.458984 4.57324 -2.08301 30.4375 16.623 51.7646
c16.2686 18.5645 42.6016 27.9658 78.2744 27.9658c35.6719 0 62.0049 -9.40137 78.2734 -27.9746c18.7061 -21.3271 17.082 -47.1738 16.623 -51.7646v-41.1982c5.02246 -5.83496 7.83008 -13.2588 7.83008 -20.9121v-31.2939
c0 -14.1777 -9.18945 -26.5449 -22.873 -30.7646c-4.67871 -1.4209 -9.60449 1.17383 -11.0342 5.82617c-1.43848 4.65234 1.17383 9.60449 5.82617 11.0352c6.14453 1.89746 10.4258 7.60938 10.4258 13.9033v31.2939c0 4.10449 -1.74805 7.93555 -4.91699 10.7959
l-2.91309 2.63086l0.0791016 50.3252c0.0175781 0.176758 2.46289 21.8047 -12.4736 38.6738c-12.7998 14.4424 -34.6035 21.7695 -64.8467 21.7695c-30.3584 0 -52.2334 -7.38965 -64.998 -21.9375c-14.9541 -17.0459 -12.3496 -38.2764 -12.3232 -38.4883
l0.0791016 -1.15625v-49.1689l-2.91309 -2.63086c-3.17773 -2.86914 -4.91699 -6.69141 -4.91699 -10.7959v-31.2939c0 -4.95215 2.54297 -9.54297 6.78906 -12.2881l3.00977 -1.95117l0.803711 -3.49512c7.21191 -31.4355 26.2969 -54.6523 26.4912 -54.873
l2.03027 -2.4541l0.00878906 -31.7969c0 -13.6738 -7.45898 -26.2354 -19.4648 -32.7852l-69.7998 -38.0732l-0.84668 -0.477539c0.396484 -0.299805 0.776367 -0.617188 1.17383 -0.917969c3.84863 -2.88672 7.80371 -5.61426 11.8115 -8.23535
c1.27051 -0.830078 2.55078 -1.65137 3.83984 -2.46289c4.35156 -2.71973 8.76562 -5.32324 13.2764 -7.7334c0.635742 -0.344727 1.28906 -0.662109 1.93359 -0.99707c4.94336 -2.56934 9.94824 -5.00586 15.0508 -7.2041
c0.0351562 -0.0175781 0.0791016 -0.0351562 0.115234 -0.0527344c5.39355 -2.32129 10.8838 -4.40527 16.4365 -6.29395c0.34375 -0.124023 0.697266 -0.238281 1.04199 -0.353516c11.1846 -3.75098 22.6689 -6.62012 34.3389 -8.57129
c0.24707 -0.0439453 0.494141 -0.0878906 0.741211 -0.132812c5.51758 -0.900391 11.0879 -1.56152 16.6846 -2.05664c0.953125 -0.0878906 1.91504 -0.149414 2.87793 -0.220703c5.55273 -0.415039 11.1318 -0.688477 16.7285 -0.688477z" />
    <glyph glyph-name="uniF11A" unicode="&#xf11a;" 
d="M401.289 110.348c48.2363 0 87.1738 -38.9375 87.1738 -87.1738s-38.9375 -87.1738 -87.1738 -87.1738c-48.2354 0 -87.1729 38.9375 -87.1729 87.1738c0 11.623 2.32422 23.2461 6.39258 33.126l-141.222 81.9434c-15.6914 -20.3408 -40.6807 -33.707 -68.5762 -33.707
c-48.2363 0 -87.1738 38.9375 -87.1738 87.1729c0 48.2363 38.9375 87.1738 87.1738 87.1738c27.8955 0 52.3037 -13.3662 68.5762 -33.707l141.222 82.5244c-4.06836 9.87988 -6.39258 21.5029 -6.39258 33.126c0 48.2363 38.9375 87.1738 87.1729 87.1738
c48.2363 0 87.1738 -38.9375 87.1738 -87.1738s-38.9375 -87.1738 -87.1738 -87.1738c-27.8955 0 -52.8848 13.3672 -68.5762 33.707l-141.222 -81.9424c8.71777 -21.5029 8.71777 -45.3311 0 -66.834l141.222 -81.9424c15.6914 20.3398 40.6807 33.707 68.5762 33.707z
M401.289 424.173c-35.4502 0 -63.9268 -28.4775 -63.9268 -63.9277s28.4766 -63.9277 63.9268 -63.9277c35.4512 0 63.9277 28.4775 63.9277 63.9277s-28.4766 63.9277 -63.9277 63.9277zM110.711 127.782c35.4502 0 63.9268 28.4766 63.9268 63.9268
c0 35.4512 -28.4766 63.9277 -63.9268 63.9277c-35.4512 0 -63.9277 -28.4766 -63.9277 -63.9277c0 -35.4502 28.4766 -63.9268 63.9277 -63.9268zM401.289 -40.7539c35.4512 0 63.9277 28.4766 63.9277 63.9277c0 35.4502 -28.4766 63.9268 -63.9277 63.9268
c-35.4502 0 -63.9268 -28.4766 -63.9268 -63.9268c0 -35.4512 28.4766 -63.9277 63.9268 -63.9277z" />
    <glyph glyph-name="uniF118" unicode="&#xf118;" 
d="M351.652 -33.4385l-214.325 213.929c-6.35059 6.34961 -6.35059 16.6699 0 23.0195l214.325 213.929c6.35059 6.35059 16.6699 6.35059 23.0205 0s6.35059 -16.6699 0 -23.0195l-202.419 -202.419l202.419 -202.419c6.35059 -6.34961 6.35059 -16.6689 0 -23.0195
c-3.1748 -3.17578 -7.14453 -4.7627 -11.5098 -4.7627c-4.36621 0 -8.33496 1.58691 -11.5107 4.7627z" />
    <glyph glyph-name="uniF11C" unicode="&#xf11c;" 
d="M510.354 246.497c1.58301 -2.11914 2.05859 -4.86816 1.27539 -7.39258c-0.78418 -2.52637 -2.73047 -4.52637 -5.23438 -5.37598l-42.293 -14.3535v-114.773c0 -3.3418 -2.01367 -6.35449 -5.10352 -7.63184l-199.846 -82.5801s-1.34766 -0.626953 -3.15332 -0.626953
s-2.55859 0.380859 -3.15234 0.626953l-199.845 82.5801c-3.08984 1.27734 -5.10547 4.28906 -5.10547 7.63184v114.771l-42.292 14.3535c-2.50391 0.849609 -4.45117 2.84863 -5.23438 5.37598c-0.783203 2.52637 -0.307617 5.27539 1.27637 7.39453
c0 0 47.2402 63.1133 47.8965 63.999c1.63965 2.21289 4.36816 3.00098 4.36816 3.00098l199.844 56.4287c1.46875 0.414062 3.02051 0.414062 4.48926 0l199.844 -56.4287c3.22168 -1.02539 4.26758 -2.88184 4.28027 -2.89941
c0.0283203 -0.0361328 47.9854 -64.1006 47.9854 -64.1006zM21.6885 245.71l172.339 -58.4893l47.6006 58.6699l-81.1631 22.3594l-85.8232 23.6406l-15.25 4.2002zM247.742 34.3711v0l0.00195312 192.839l-44.5146 -54.8623
c-1.59766 -1.97168 -3.9707 -3.05566 -6.41113 -3.05566c-0.888672 0 -1.78418 0.139648 -2.65332 0.436523l-129.752 44.041v-103.645zM255.999 259.059l169.108 46.5879l-169.108 47.752l-169.107 -47.752zM447.587 110.125v0v103.643l-129.751 -44.041
c-0.870117 -0.296875 -1.76562 -0.4375 -2.6543 -0.4375c-2.44043 0 -4.81348 1.08691 -6.41113 3.05664l-44.5146 54.8623v-192.837zM317.973 187.219l172.34 58.4912l-37.7041 50.3809l-182.236 -50.2031z" />
    <glyph glyph-name="uniF107" unicode="&#xf107;" 
d="M256 448c141.154 0 256 -114.838 256 -256s-114.846 -256 -256 -256s-256 114.838 -256 256s114.846 256 256 256zM256 -32.4922c123.786 0 224.492 100.706 224.492 224.492s-100.706 224.492 -224.492 224.492s-224.492 -100.706 -224.492 -224.492
s100.706 -224.492 224.492 -224.492zM233.732 294.077c0 14.5518 11.7959 26.3486 26.3477 26.3486s26.3486 -11.7969 26.3486 -26.3486s-11.7969 -26.3486 -26.3486 -26.3486s-26.3477 11.7969 -26.3477 26.3486zM253.141 224.752
c8.69629 0 15.7539 -7.0498 15.7539 -15.7539v-133.907c0 -8.69629 -7.05762 -15.7539 -15.7539 -15.7539s-15.7539 7.05762 -15.7539 15.7539v133.907c0 8.69629 7.05762 15.7539 15.7539 15.7539z" />
    <glyph glyph-name="uniF109" unicode="&#xf109;" 
d="M240.057 296.198c47.1973 47.1973 94.499 94.498 141.486 141.695c7.41406 7.51758 15.9766 10.6504 25.374 9.50195l1.77539 -0.208984c6.47363 -0.834961 13.8867 -1.77539 20.8828 -4.59473c34.876 -14.0957 60.3535 -39.1562 75.7031 -74.2412v0
c2.50586 -5.84668 3.75977 -11.9033 4.9082 -17.2285c0.521484 -2.08887 0.939453 -4.28125 1.46191 -6.36914c0.3125 -1.35742 0.416992 -2.81934 0.3125 -4.28125c-0.834961 -8.87598 -4.17676 -16.0811 -10.2324 -22.1367
c-82.0723 -81.9688 -164.146 -164.041 -246.218 -246.218c-4.90723 -4.90723 -10.6504 -7.93555 -17.4375 -9.39746c-29.2373 -6.05664 -58.5791 -12.3213 -87.8154 -18.4824l-18.3779 -3.86328c-1.77539 -0.313477 -3.5498 -0.522461 -5.3252 -0.522461
c-6.26562 0 -12.2168 2.40234 -16.498 6.68359c-5.53418 5.53418 -7.72656 13.6787 -6.05664 21.8232l3.55078 16.707c6.36914 30.1768 12.7383 60.3535 19.3174 90.5303c1.25293 5.74316 4.48926 11.5898 8.77051 15.9756c18.1689 18.4824 36.5469 36.7549 54.8193 55.0283
zM403.471 422.23c-0.730469 0 -1.66992 -0.313477 -3.6543 -1.9834c-47.1973 -47.4062 -94.498 -94.707 -141.8 -142.009l-49.5986 -49.5986c-18.2725 -18.1689 -36.4414 -36.4414 -54.6104 -54.8193c-0.939453 -1.04395 -1.77539 -2.50586 -1.9834 -3.44531
c-6.47461 -30.0732 -12.8438 -60.25 -19.2139 -90.3223l-2.92285 -13.6787l15.4531 3.2373c29.3418 6.16016 58.5791 12.3213 87.9199 18.4814c1.87988 0.417969 3.13281 1.04492 4.49023 2.40234c82.0723 82.0723 164.146 164.249 246.322 246.217
c1.46191 1.35742 2.19238 2.61133 2.61035 4.49023c-0.313477 1.6709 -0.730469 3.3418 -1.04395 5.0127c-0.94043 4.48926 -1.87988 8.77051 -3.3418 12.1123c-12.6348 28.8193 -33.5176 49.2852 -61.9199 60.7715c-3.96777 1.66992 -8.97949 2.29688 -14.4092 2.92285
l-1.77539 0.208984h-0.522461zM40.6182 333.789c-8.24902 0 -15.0361 -6.78711 -15.0361 -15.0361v-341.761c0 -8.24902 6.78711 -15.0361 15.0361 -15.0361h341.656c8.24902 0 15.0361 6.78711 15.0361 15.0361v174.9c0 7.10059 5.74316 12.8438 12.8438 12.8438
c7.09961 0 12.8428 -5.74316 12.8428 -12.8438v-174.9c0 -22.3457 -18.1689 -40.6182 -40.6182 -40.6182h-341.761c-22.3447 0 -40.6182 18.1689 -40.6182 40.6182v341.864c0 22.3457 18.1689 40.6191 40.6182 40.6191h182.314c7.10059 0 12.8428 -5.74316 12.8428 -12.8438
s-5.74219 -12.8428 -12.8428 -12.8428h-182.314z" />
    <glyph glyph-name="uniF11F" unicode="&#xf11f;" 
d="M481.438 310.673c6.35059 -6.35059 6.35059 -16.6699 -0.396484 -23.0205l-213.929 -213.929c-3.17578 -3.1748 -7.54102 -4.7627 -11.5098 -4.7627c-4.36621 0 -8.33496 1.58789 -11.5107 4.7627l-213.929 213.929c-6.35059 6.35059 -6.35059 16.6699 0 23.0205
s16.6699 6.35059 23.0205 0l202.815 -202.815l202.419 202.815c6.34961 6.35059 16.6689 6.35059 23.0195 0z" />
    <glyph glyph-name="uniF106" unicode="&#xf106;" 
d="M486.4 413.866c4.71875 0 8.5332 -3.81348 8.5332 -8.5332v-93.8662v-366.934c0 -4.71875 -3.81445 -8.5332 -8.5332 -8.5332h-460.801c-4.71875 0 -8.5332 3.81445 -8.5332 8.5332v366.934v93.8662c0 4.71973 3.81445 8.5332 8.5332 8.5332h59.7334v25.6006
c0 4.71875 3.81445 8.5332 8.5332 8.5332h59.7334c4.71973 0 8.53418 -3.81445 8.53418 -8.5332v-25.6006h187.732v25.6006c0 4.71875 3.81445 8.5332 8.53418 8.5332h59.7334c4.71875 0 8.5332 -3.81445 8.5332 -8.5332v-25.6006h59.7334zM366.934 430.934v-25.6006
v-25.5996h42.666v25.5996v25.6006h-42.666zM102.4 430.934v-25.6006v-25.5996h42.666v25.5996v25.6006h-42.666zM34.1338 396.8v-76.7998h443.732v76.7998h-51.1992v-25.5996c0 -4.71875 -3.81445 -8.5332 -8.5332 -8.5332h-59.7334
c-4.71973 0 -8.53418 3.81445 -8.53418 8.5332v25.5996h-187.732v-25.5996c0 -4.71875 -3.81445 -8.5332 -8.53418 -8.5332h-59.7334c-4.71875 0 -8.5332 3.81445 -8.5332 8.5332v25.5996h-51.1992zM34.1338 -46.9336h443.732v349.867h-443.732v-349.867zM324.267 251.733
h17.0664h76.8008v-76.7998v-17.0674v-59.7324v-17.0674v-76.7998h-76.8008h-17.0664h-59.7334h-17.0664h-59.7334h-17.0664h-76.8008v76.7998v17.0674v59.7324v17.0674v76.7998h76.8008h17.0664h59.7334h17.0664h59.7334zM264.533 234.667v-59.7334h59.7334v59.7334
h-59.7334zM324.267 98.1338v59.7324h-59.7334v-59.7324h59.7334zM187.733 157.866v-59.7324h59.7334v59.7324h-59.7334zM187.733 234.667v-59.7334h59.7334v59.7334h-59.7334zM110.934 234.667v-59.7334h59.7334v59.7334h-59.7334zM110.934 157.866v-59.7324h59.7334
v59.7324h-59.7334zM170.667 21.333v59.7334h-59.7334v-59.7334h59.7334zM247.467 21.333v59.7334h-59.7334v-59.7334h59.7334zM324.267 21.333v59.7334h-59.7334v-59.7334h59.7334zM401.066 21.333v59.7334h-59.7334v-59.7334h59.7334zM401.066 98.1338v59.7324h-59.7334
v-59.7324h59.7334zM401.066 234.667h-59.7334v-59.7334h59.7334v59.7334z" />
    <glyph glyph-name="uniF12A" unicode="&#xf12a;" 
d="M256 183.173c19.4736 0 35.3105 -15.8369 35.3105 -35.3105v-52.9658c0 -19.4736 -15.8369 -35.3105 -35.3105 -35.3105s-35.3105 15.8369 -35.3105 35.3105v52.9658c0 19.4736 15.8369 35.3105 35.3105 35.3105zM273.655 94.8965v52.9658
c0 9.73633 -7.91797 17.6553 -17.6553 17.6553s-17.6553 -7.91895 -17.6553 -17.6553v-52.9658c0 -9.73633 7.91797 -17.6553 17.6553 -17.6553s17.6553 7.91895 17.6553 17.6553zM353.104 259.849c47.8105 -31.6201 79.4482 -85.8037 79.4482 -147.297
c0 -97.3506 -79.2012 -176.552 -176.552 -176.552s-176.552 79.2012 -176.552 176.552c0 61.4932 31.6377 115.677 79.4482 147.297v97.9336c0 49.7432 43.5645 90.2178 97.1035 90.2178s97.1035 -40.4746 97.1035 -90.2178v-97.9336zM176.552 270.062
c1.65918 0.838867 3.35449 1.58008 5.0498 2.36523c3.46875 1.625 6.98242 3.15137 10.5752 4.54688c2.29492 0.900391 4.61621 1.74805 6.94727 2.55078c2.28613 0.777344 4.57227 1.57129 6.90332 2.25977c3.85742 1.14746 7.75879 2.12793 11.6875 3.01074
c1.7041 0.378906 3.41602 0.75 5.1377 1.07617c4.61719 0.891602 9.25977 1.61621 13.9385 2.13672c1.05078 0.115234 2.11914 0.185547 3.17773 0.282227c5.32324 0.495117 10.6641 0.8125 16.0312 0.8125s10.708 -0.317383 16.0488 -0.821289
c1.05859 -0.0966797 2.11816 -0.166992 3.17773 -0.282227c4.67871 -0.520508 9.32227 -1.24512 13.9385 -2.13672c1.72168 -0.334961 3.43457 -0.697266 5.1377 -1.07617c3.92871 -0.882812 7.83008 -1.86328 11.6875 -3.01074
c2.33105 -0.688477 4.6084 -1.47363 6.90332 -2.25977c2.33105 -0.802734 4.64355 -1.65039 6.94727 -2.55078c3.58398 -1.4043 7.10645 -2.92188 10.5762 -4.54688c1.67676 -0.785156 3.37207 -1.52637 5.03125 -2.36523v87.7285
c0 40.0068 -35.6367 72.5625 -79.4482 72.5625s-79.4482 -32.5557 -79.4482 -72.5625v-87.7197zM256 -46.3447c87.6143 0 158.896 71.2822 158.896 158.896c0 57.7061 -31.0293 108.182 -77.1797 136.016c-8.12109 4.89062 -16.6045 9.0127 -25.3613 12.3672
c-1.55371 0.591797 -3.10742 1.17383 -4.6875 1.72168c-2.41016 0.837891 -4.8291 1.65039 -7.27441 2.36523c-3.00098 0.874023 -6.04688 1.65137 -9.11816 2.34863c-2.24219 0.511719 -4.49316 0.961914 -6.75391 1.37695
c-3.25684 0.591797 -6.54102 1.12109 -9.86914 1.50977c-1.50879 0.175781 -3.00977 0.334961 -4.51953 0.476562c-4.66992 0.415039 -9.36621 0.714844 -14.1328 0.714844s-9.46289 -0.299805 -14.1328 -0.714844
c-1.50977 -0.132812 -3.01953 -0.291016 -4.51953 -0.476562c-3.32812 -0.388672 -6.6123 -0.917969 -9.86914 -1.50977c-2.26074 -0.415039 -4.51172 -0.865234 -6.75391 -1.37695c-3.07129 -0.697266 -6.11719 -1.47461 -9.11816 -2.34863
c-2.44531 -0.723633 -4.86426 -1.52734 -7.27441 -2.36523c-1.57129 -0.547852 -3.13379 -1.12988 -4.6875 -1.72168c-8.75684 -3.35449 -17.2402 -7.47656 -25.3613 -12.3672c-46.1504 -27.834 -77.1797 -78.3096 -77.1797 -136.016
c0 -87.6143 71.2822 -158.896 158.896 -158.896z" />
    <glyph glyph-name="uniF113" unicode="&#xf113;" 
d="M491.729 335.029c2.5918 -1.25195 4.23926 -3.875 4.23926 -6.75488v-272.549c0 -2.87793 -1.64648 -5.50293 -4.23926 -6.75391l-232.468 -112.226c-1.03027 -0.49707 -2.14551 -0.746094 -3.26074 -0.746094s-2.23145 0.249023 -3.26074 0.746094l-232.468 112.226
c-2.59277 1.25098 -4.23926 3.87598 -4.23926 6.75391v272.55c0 2.87793 1.64648 5.50293 4.23926 6.75391l232.469 112.226c2.05957 0.994141 4.45996 0.994141 6.52051 0zM256 432.172l-62.1953 -30.0244l213.755 -103.19
c0.458008 -0.220703 0.875 -0.499023 1.27051 -0.799805l62.3867 30.1182zM176.867 393.667l-43.9258 -21.291l214.814 -103.704l44.0156 21.249zM396.799 275.693l-41.1133 -19.8486v-78.5459l41.1133 19.8486v78.5459zM480.968 60.4316v255.894l-69.1689 -33.3926
v-90.4941c0 -2.87988 -1.64648 -5.50391 -4.23926 -6.75488l-56.1123 -27.0889c-1.0332 -0.499023 -2.14844 -0.746094 -3.26074 -0.746094c-1.38867 0 -2.77344 0.385742 -3.9873 1.14746c-2.18652 1.37305 -3.51367 3.77148 -3.51367 6.35254v89.999
c-0.0332031 0.0449219 -0.0703125 0.0859375 -0.103516 0.132812l-225.294 108.763l-74.5049 -35.9678l162.37 -78.3867c3.72949 -1.80078 5.29395 -6.28516 3.49316 -10.0146c-1.29395 -2.67871 -3.97168 -4.24121 -6.75977 -4.24121
c-1.09277 0 -2.2041 0.240234 -3.25488 0.748047l-165.6 79.9453v-255.893l217.468 -104.983v255.892l-19.8184 9.56738c-3.72949 1.80078 -5.29395 6.28516 -3.49219 10.0146c1.80078 3.73047 6.2832 5.2959 10.0146 3.49316l20.7959 -10.04l52.8506 25.5146
c3.73145 1.80273 8.21484 0.236328 10.0156 -3.49219c1.80078 -3.73145 0.236328 -8.21484 -3.49316 -10.0156l-51.873 -25.042v-255.892zM92.9258 89.5215c3.73047 -1.80273 5.29395 -6.28418 3.49219 -10.0156c-1.29297 -2.67871 -3.9707 -4.24121 -6.75879 -4.24121
c-1.09277 0 -2.2041 0.240234 -3.25488 0.748047l-34.1152 16.4697c-3.73047 1.80078 -5.29395 6.28418 -3.49316 10.0146c1.80078 3.72949 6.2832 5.2959 10.0146 3.49316zM124.323 109.958c3.72949 -1.7998 5.29395 -6.28418 3.49316 -10.0156
c-1.29297 -2.67969 -3.97168 -4.24121 -6.75977 -4.24121c-1.09277 0 -2.2041 0.241211 -3.25488 0.748047l-65.4648 31.6035c-3.72949 1.80078 -5.29395 6.28516 -3.49414 10.0156c1.80078 3.73047 6.28418 5.29492 10.0156 3.49316z" />
    <glyph glyph-name="uniF101" unicode="&#xf101;" 
d="M255.999 448c141.159 0 255.999 -114.842 255.999 -255.999s-114.842 -255.999 -255.999 -255.999s-255.999 114.842 -255.999 255.999s114.842 255.999 255.999 255.999zM255.999 -30.3086c122.581 0 222.308 99.7285 222.308 222.31s-99.7266 222.308 -222.308 222.308
s-222.308 -99.7266 -222.308 -222.308s99.7266 -222.31 222.308 -222.31zM272.845 207.116c37.2842 -7.77246 65.3799 -40.8887 65.3799 -80.4453c0 -39.5557 -28.0957 -72.667 -65.3799 -80.4404v-26.707c0 -9.30371 -7.54199 -16.8457 -16.8457 -16.8457
s-16.8457 7.54199 -16.8457 16.8457v26.7578c-21.0186 4.39648 -39.667 16.8721 -51.7695 35.248c-5.11816 7.77148 -2.9668 18.2178 4.80371 23.334c7.76855 5.11914 18.2148 2.96484 23.334 -4.80566c5.78223 -8.78418 14.0996 -15.2793 23.6318 -18.8193v95.6455
c-37.2822 7.77246 -65.3809 40.8887 -65.3809 80.4453c0 39.5557 28.0967 72.667 65.3809 80.4404v26.71c0 9.30371 7.54199 16.8457 16.8457 16.8457s16.8457 -7.54199 16.8457 -16.8457v-26.7607c21.0186 -4.39648 39.666 -16.8721 51.7686 -35.248
c5.11914 -7.77148 2.96777 -18.2178 -4.80273 -23.334c-7.76855 -5.11621 -18.2158 -2.96484 -23.334 4.80566c-5.7832 8.78418 -14.0996 15.2793 -23.6318 18.8193v-95.6455zM207.464 257.329c0 -20.8242 13.2217 -38.5693 31.6895 -45.4209v90.8408
c-18.4678 -6.85059 -31.6895 -24.5967 -31.6895 -45.4199zM272.845 81.2529c18.4697 6.85156 31.6885 24.5967 31.6885 45.4209c0 20.8232 -13.2207 38.5693 -31.6885 45.4209v-90.8418z" />
    <glyph glyph-name="uniF120" unicode="&#xf120;" 
d="M160.348 -33.4385c-3.17578 -3.17578 -7.14453 -4.7627 -11.5107 -4.7627c-4.36523 0 -8.33496 1.58691 -11.5098 4.7627c-6.35059 6.35059 -6.35059 16.6699 0 23.0195l202.419 202.419l-202.419 202.419c-6.35059 6.34961 -6.35059 16.6689 0 23.0195
s16.6699 6.35059 23.0205 0l213.929 -213.929c6.34961 -6.34961 6.34961 -16.6699 0 -23.0195z" />
    <glyph glyph-name="uniF126" unicode="&#xf126;" 
d="M470.726 10.0127h-429.451c-22.75 0 -41.2744 18.5078 -41.2744 41.2744v281.442c0 22.7666 18.5244 41.2734 41.2744 41.2734h429.451c22.75 0 41.2744 -18.5068 41.2744 -41.2734v-281.442c0 -22.7666 -18.5244 -41.2744 -41.2744 -41.2744zM41.2744 357.493
c-13.6533 0 -24.7646 -11.1104 -24.7646 -24.7637v-281.442c0 -13.6533 11.1113 -24.7646 24.7646 -24.7646h429.451c13.6533 0 24.7646 11.1113 24.7646 24.7646v281.442c0 13.6533 -11.1113 24.7637 -24.7646 24.7637h-429.451zM256 150.527
c-10.9785 0 -21.958 3.64844 -30.3115 10.9297l-210.979 183.869c-3.43359 3.00488 -3.79688 8.20508 -0.791992 11.6387c3.00488 3.46777 8.22168 3.79785 11.6553 0.80957l210.962 -183.869c10.5664 -9.19629 28.3965 -9.17969 38.9297 0l210.912 183.853
c3.41699 3.02148 8.61816 2.6748 11.6562 -0.808594c3.00391 -3.43457 2.6416 -8.63477 -0.792969 -11.6396l-210.929 -183.836c-8.35352 -7.29785 -19.333 -10.9463 -30.3115 -10.9463z" />
    <glyph glyph-name="uniF110" unicode="&#xf110;" 
d="M192 128v128h128v-128h-128zM0 320v128h128v-128h-128zM192 -64v128h128v-128h-128zM0 128v128h128v-128h-128zM0 -64v128h128v-128h-128zM384 320v128h128v-128h-128zM192 320v128h128v-128h-128zM384 128v128h128v-128h-128zM384 -64v128h128v-128h-128z" />
    <glyph glyph-name="uniF103" unicode="&#xf103;" 
d="M185.379 324.414c4.87305 0 8.82812 -3.94629 8.82812 -8.82812s-3.95508 -8.82715 -8.82812 -8.82715h-44.1377v-44.1377c0 -4.88184 -3.95508 -8.82812 -8.82715 -8.82812c-4.87305 0 -8.82812 3.94629 -8.82812 8.82812v44.1377h-44.1377
c-4.87305 0 -8.82715 3.94531 -8.82715 8.82715s3.9541 8.82812 8.82715 8.82812h44.1377v44.1377c0 4.88184 3.95508 8.82715 8.82812 8.82715c4.87207 0 8.82715 -3.94531 8.82715 -8.82715v-44.1377h44.1377zM432.552 324.414
c4.87305 0 8.82715 -3.94629 8.82715 -8.82812s-3.9541 -8.82715 -8.82715 -8.82715h-105.931c-4.87305 0 -8.82812 3.94531 -8.82812 8.82715s3.95508 8.82812 8.82812 8.82812h105.931zM264.827 448h247.173v-247.173v-17.6543v-247.173h-247.173h-17.6543h-247.173
v247.173v17.6543v247.173h247.173h17.6543zM17.6553 430.345v-229.518h229.518v229.518h-229.518zM17.6553 -46.3447h229.518v229.518h-229.518v-229.518zM494.345 -46.3447v229.518h-229.518v-229.518h229.518zM264.827 200.827h229.518v229.518h-229.518v-229.518z
M326.621 33.1035c-4.87305 0 -8.82812 3.94629 -8.82812 8.82715c0 4.88184 3.95508 8.82812 8.82812 8.82812h105.931c4.87305 0 8.82715 -3.94629 8.82715 -8.82812c0 -4.88086 -3.9541 -8.82715 -8.82715 -8.82715h-105.931zM326.621 86.0693
c-4.87305 0 -8.82812 3.94531 -8.82812 8.82715s3.95508 8.82812 8.82812 8.82812h105.931c4.87305 0 8.82715 -3.94629 8.82715 -8.82812s-3.9541 -8.82715 -8.82715 -8.82715h-105.931zM182.793 118.793c3.45117 -3.45215 3.45117 -9.03125 0 -12.4824l-37.8965 -37.8965
l37.8965 -37.8975c3.45117 -3.45117 3.45117 -9.03027 0 -12.4814c-1.72168 -1.72168 -3.98145 -2.58691 -6.24121 -2.58691s-4.51953 0.865234 -6.24121 2.58691l-37.8965 37.8965l-37.8975 -37.8965c-1.7207 -1.72168 -3.98047 -2.58691 -6.24121 -2.58691
c-2.25977 0 -4.51953 0.865234 -6.24023 2.58691c-3.45215 3.45117 -3.45215 9.03027 0 12.4814l37.8965 37.8975l-37.8965 37.8965c-3.45215 3.45117 -3.45215 9.03027 0 12.4824c3.45117 3.45117 9.03027 3.45117 12.4814 0l37.8975 -37.8965l37.8965 37.8965
c3.45117 3.45117 9.03027 3.45117 12.4824 0z" />
    <glyph glyph-name="uniF10D" unicode="&#xf10d;" 
d="M503.983 38.6143c-4.42871 0 -8.0166 3.58789 -8.0166 8.01562v274.199c-0.176758 -0.0117188 -0.352539 -0.0273438 -0.53418 -0.0273438h-76.96c-4.42871 0 -8.0166 3.58887 -8.0166 8.01758v76.96c0 0.179688 0.0146484 0.356445 0.0273438 0.53418h-172.119v-60.3926
c0 -4.42871 -3.58789 -8.0166 -8.01758 -8.0166c-4.42871 0 -8.0166 3.58887 -8.0166 8.0166v78.0293c0 4.4209 -3.5957 8.0166 -8.0166 8.0166h-190.264c-4.4209 0 -8.0166 -3.5957 -8.0166 -8.0166v-258.673c0 -4.4209 3.5957 -8.01758 8.0166 -8.01758h190.262
c4.42188 0 8.01758 3.59668 8.01758 8.01758v137.893c0 4.42871 3.58789 8.0166 8.0166 8.0166c4.42969 0 8.01758 -3.58887 8.01758 -8.0166v-137.892c0 -13.2617 -10.7891 -24.0508 -24.0498 -24.0508h-112.769v-189.193h394.421v51.8408
c0 4.42871 3.58887 8.0166 8.01758 8.0166s8.0166 -3.58887 8.0166 -8.0166v-59.8584c0 -4.42871 -3.58887 -8.0166 -8.0166 -8.0166h-410.455c-4.42969 0 -8.01758 3.58887 -8.01758 8.0166v197.211h-61.4609c-13.2607 0 -24.0498 10.7891 -24.0498 24.0508v258.672
c0 13.2607 10.7891 24.0498 24.0498 24.0498h190.264c13.2607 0 24.0498 -10.7891 24.0498 -24.0498v-1.60547h180.109c2.12598 0 4.16406 -0.84375 5.66895 -2.34668l85.5117 -85.5107c1.50293 -1.50488 2.34668 -3.54297 2.34668 -5.66895v-282.188
c0 -4.42871 -3.58887 -8.0166 -8.0166 -8.0166zM426.489 336.835h58.1406l-58.1406 58.1406v-58.1406zM198.28 80.3008c4.42773 0 8.01562 -3.58887 8.0166 -8.0166c0 -4.42871 -3.58887 -8.01758 -8.0166 -8.01758h-53.4453c-4.42871 0 -8.0166 3.58984 -8.0166 8.01758
c0 4.42871 3.58887 8.0166 8.0166 8.0166h53.4453zM198.28 37.5449c4.42773 0 8.01562 -3.58789 8.0166 -8.0166c0 -4.42969 -3.58887 -8.01758 -8.0166 -8.01758h-53.4453c-4.42871 0 -8.0166 3.58887 -8.0166 8.01758s3.58887 8.0166 8.0166 8.0166h53.4453z
M358.614 200.017c65.7158 0 119.183 -53.4648 119.183 -119.182s-53.4648 -119.182 -119.182 -119.182s-119.183 53.4648 -119.183 119.182c0 19.1299 4.64551 38.1533 13.4316 55.0117c2.04688 3.92676 6.88867 5.44727 10.8145 3.4043
c3.9248 -2.04688 5.44922 -6.8877 3.40332 -10.8154c-7.70801 -14.7871 -11.6162 -30.8027 -11.6162 -47.6006c0 -56.876 46.2725 -103.148 103.148 -103.148s103.147 46.2725 103.147 103.148s-46.2715 103.148 -103.147 103.148
c-28.3574 0 -54.792 -11.2725 -74.4336 -31.7393c-3.06445 -3.19531 -8.13867 -3.2998 -11.335 -0.233398c-3.19434 3.06641 -3.29883 8.14062 -0.232422 11.335c22.6924 23.6484 53.2344 36.6709 86.001 36.6709zM376.915 87.7832
c13.2012 -0.0712891 23.9199 -10.833 23.9189 -24.0488v-26.7227c0 -13.2607 -10.7891 -24.0498 -24.0498 -24.0498h-12.292v-9.08594c0 -4.42871 -3.58887 -8.0166 -8.01758 -8.0166s-8.0166 3.58887 -8.0166 8.0166v9.08594h-24.0498
c-4.42969 0 -8.01758 3.58887 -8.01758 8.0166c0 4.42969 3.58984 8.01758 8.01758 8.01758h24.0498v43.585l-8.14746 0.239258c-13.2002 0.0693359 -23.9199 10.833 -23.9199 24.0498v27.791c0 13.2607 10.7891 24.0498 24.0508 24.0498h8.0166v9.08594
c0 4.42871 3.58887 8.01758 8.0166 8.01758c4.42969 0 8.01758 -3.58984 8.01758 -8.01758v-9.08594h28.3262c4.42871 0 8.0166 -3.58887 8.0166 -8.0166c0 -4.42969 -3.58887 -8.01758 -8.0166 -8.01758h-28.3262v-44.5273zM348.459 88.6201h0.000976562v44.0566h-8.0166
c-4.4209 0 -8.01758 -3.5957 -8.01758 -8.0166v-27.791c0 -4.4209 3.59668 -8.01758 8.01758 -8.01758c0.0791016 0 0.157227 -0.000976562 0.235352 -0.00292969zM384.802 37.0098v26.7227c0 4.4209 -3.5957 8.0166 -8.0166 8.0166
c-0.0791016 0 -0.158203 0.000976562 -0.236328 0.00292969l-12.0557 0.355469v-43.1143h12.292c4.4209 0 8.0166 3.5957 8.0166 8.0166zM204.693 422.347c4.42871 0 8.0166 -3.58887 8.0166 -8.0166v-42.7559c0 -4.42969 -3.58887 -8.01758 -8.0166 -8.01758h-171.023
c-4.42871 0 -8.0166 3.58984 -8.0166 8.01758v42.7559c0 4.42871 3.58887 8.0166 8.0166 8.0166h171.023zM196.676 379.591h0.000976562v26.7227h-154.99v-26.7227h154.989zM67.875 353.937c4.42773 0 8.01562 -3.58789 8.0166 -8.0166v-34.2051
c0 -4.42871 -3.58887 -8.0166 -8.0166 -8.0166h-34.2051c-4.42871 0 -8.0166 3.58887 -8.0166 8.0166v34.2051c0 4.42871 3.58887 8.0166 8.0166 8.0166h34.2051zM59.8584 319.733v18.1709h-18.1719v-18.1709h18.1719zM136.284 353.937
c4.42773 0 8.0166 -3.58789 8.0166 -8.0166v-34.2051c0 -4.42871 -3.58887 -8.0166 -8.0166 -8.0166h-34.2051c-4.42871 0 -8.01758 3.58887 -8.01758 8.0166v34.2051c0 4.42871 3.58984 8.0166 8.01758 8.0166h34.2051zM128.267 319.733v18.1709h-18.1709v-18.1709h18.1709
zM204.693 353.937c4.42871 0 8.0166 -3.58789 8.0166 -8.0166v-34.2051c0 -4.42871 -3.58887 -8.0166 -8.0166 -8.0166h-34.2051c-4.42969 0 -8.01758 3.58887 -8.01758 8.0166v34.2051c0 4.42871 3.58887 8.0166 8.01758 8.0166h34.2051zM196.676 319.733v18.1709h-18.1709
v-18.1709h18.1709zM67.875 285.528c4.42773 0 8.01562 -3.58789 8.0166 -8.01758v-34.2051c0 -4.42871 -3.58887 -8.0166 -8.0166 -8.0166h-34.2051c-4.42871 0 -8.0166 3.58887 -8.0166 8.0166v34.2051c0 4.42969 3.58887 8.01758 8.0166 8.01758h34.2051zM59.8584 251.324
v18.1709h-18.1719v-18.1709h18.1719zM136.284 285.528c4.42773 0 8.0166 -3.58789 8.0166 -8.01758v-34.2051c0 -4.42871 -3.58887 -8.0166 -8.0166 -8.0166h-34.2051c-4.42871 0 -8.01758 3.58887 -8.01758 8.0166v34.2051c0 4.42969 3.58984 8.01758 8.01758 8.01758
h34.2051zM128.267 251.324v18.1709h-18.1709v-18.1709h18.1709zM67.875 217.119c4.42773 0 8.01562 -3.58789 8.0166 -8.01758v-34.2041c0 -4.42969 -3.58887 -8.01758 -8.0166 -8.01758h-34.2051c-4.42871 0 -8.0166 3.58887 -8.0166 8.01758v34.2041
c0 4.42969 3.58887 8.01758 8.0166 8.01758h34.2051zM59.8584 182.914v18.1709h-18.1719v-18.1709h18.1719zM136.284 217.119c4.42773 0 8.0166 -3.58789 8.0166 -8.01758v-34.2041c0 -4.42969 -3.58887 -8.01758 -8.0166 -8.01758h-34.2051
c-4.42871 0 -8.01758 3.58887 -8.01758 8.01758v34.2041c0 4.42969 3.58984 8.01758 8.01758 8.01758h34.2051zM128.267 182.914v18.1709h-18.1709v-18.1709h18.1709zM204.693 285.528c4.42871 0 8.0166 -3.58789 8.0166 -8.01758v-102.613
c0 -4.42969 -3.58887 -8.01758 -8.0166 -8.01758h-34.2051c-4.42969 0 -8.01758 3.58887 -8.01758 8.01758v102.613c0 4.42969 3.58887 8.01758 8.01758 8.01758h34.2051zM196.676 182.914v86.5801h-18.1709v-86.5801h18.1709zM475.297 258.96
c3.22461 -3.05957 3.29199 -8.33887 0.149414 -11.4834l-12.4717 -12.4707l1.13477 -1.13379c9.375 -9.37598 9.375 -24.6338 0 -34.0107l-1.51172 -1.5127h-0.000976562c-4.6875 -4.6875 -10.8457 -7.03027 -17.0049 -7.03027s-12.3164 2.34277 -17.0059 7.03027
l-127.735 127.736c-1.11816 1.12012 -1.88184 2.54492 -2.19141 4.09668l-5.23242 26.1611c-0.547852 0.361328 -17.0322 18.3984 -17.0322 18.3984c-2.97266 3.28125 -2.72461 8.34961 0.554688 11.3242c3.27637 2.97461 8.34863 2.72656 11.3242 -0.554688
l14.3008 -15.7686l29.7061 -5.94141c1.55176 -0.30957 2.97656 -1.07324 4.09668 -2.19141l115.259 -115.265l6.6543 6.6543l-37.7012 35.8018c-3.20996 3.04883 -3.34277 8.12305 -0.292969 11.333s8.12402 3.34277 11.333 0.292969zM313.905 335.704l77.2676 -77.2656
l12.8486 12.8477l-77.2666 77.2676l-16.0605 3.21191zM452.773 211.199c3.125 3.12598 3.12598 8.21191 0 11.3369l-37.4131 37.4131l-12.8477 -12.8486l37.4121 -37.4121c3.125 -3.12793 8.20996 -3.12402 11.3379 0z" />
    <glyph glyph-name="uniF122" unicode="&#xf122;" 
d="M508.919 35.5752c5.20801 -7.12109 3.65625 -17.1133 -3.46484 -22.3223c-7.12012 -5.20801 -17.1152 -3.6543 -22.3213 3.4668l-74.4043 101.759c-13.3906 18.3145 -34.4482 29.4443 -56.3271 29.7734c-0.757812 0.00976562 -1.52148 0.0117188 -2.28809 0.000976562
l-149.968 -2.17969c-3.05371 -0.0449219 -5.00586 -1.66406 -5.89648 -2.625c-0.891602 -0.959961 -2.36133 -3.02734 -2.17773 -6.07715c0.25293 -4.23145 3.77344 -7.62012 8.01172 -7.71484l93.8809 -2.08594c10.6123 -0.236328 20.748 -4.91699 27.8096 -12.8418
c7.06055 -7.9248 10.5449 -18.5303 9.56055 -29.0986c-1.83008 -19.6377 -18.5645 -34.8262 -38.2256 -34.8281c-0.199219 0 -0.394531 0.00195312 -0.59375 0.00488281l-107.854 1.6748c-13.1484 0.204102 -25.9834 4.91699 -36.1416 13.2715l-95.5029 78.5615
c-5.23926 4.30762 -12.9707 3.7998 -17.6006 -1.1582c-2.35742 -2.52246 -3.58594 -5.81152 -3.45996 -9.26074c0.125 -3.4502 1.58984 -6.6416 4.12305 -8.98633l121.41 -112.405c9.38281 -8.6875 21.5908 -13.707 34.3711 -14.1338l180.316 -6.01953
c8.81641 -0.293945 15.7246 -7.67969 15.4307 -16.4971c-0.289062 -8.63379 -7.37988 -15.4385 -15.9541 -15.4385c-0.180664 0 -0.360352 0.00292969 -0.542969 0.00878906l-180.317 6.02051c-20.4541 0.681641 -39.9893 8.71484 -55.0078 22.6191l-121.411 112.407
c-8.81445 8.15918 -13.9092 19.2637 -14.3447 31.2666s3.83887 23.4463 12.0361 32.2256c16.1123 17.2529 43.0127 19.0225 61.2432 4.02344l95.5039 -78.5596c4.59277 -3.77832 10.3975 -5.91016 16.3438 -6.00293l107.854 -1.67383
c0.0332031 0 0.0673828 -0.000976562 0.0996094 -0.000976562c3.30078 0 6.1084 2.5498 6.41602 5.84473c0.226562 2.42969 -0.908203 4.10449 -1.60449 4.88574c-0.696289 0.782227 -2.22852 2.10156 -4.66699 2.15527l-93.8809 2.08594
c-18.292 0.407227 -33.8369 13.3604 -38.0996 30.6201c-23.0596 12.5498 -42.6523 30.6689 -56.9941 52.8555c-16.416 25.3916 -25.0918 54.8613 -25.0918 85.2217c0 86.6641 70.5059 157.171 157.17 157.171c86.665 0 157.171 -70.5068 157.171 -157.171
c0 -31.7402 -9.25684 -61.8564 -26.5117 -87.4668c26.5674 -4.25684 51.1025 -19.1914 67.498 -41.6162zM199.681 178.015l26.0254 0.37793v6.10938c-20.7451 4.83789 -36.25 23.4688 -36.25 45.665c0 5.87988 4.7666 10.6484 10.6484 10.6484
c5.88086 0 10.6484 -4.76855 10.6484 -10.6484c0 -10.3184 6.13867 -19.2246 14.9531 -23.2734v50.1113c-20.7451 4.83691 -36.25 23.4678 -36.25 45.6641c0 22.1973 15.5049 40.8281 36.25 45.665v7.38184c0 5.87988 4.76758 10.6484 10.6484 10.6484
s10.6484 -4.76855 10.6484 -10.6484v-7.38184c20.7451 -4.83691 36.251 -23.4678 36.251 -45.665c0 -5.87988 -4.76758 -10.6484 -10.6484 -10.6484c-5.88184 0 -10.6484 4.76855 -10.6484 10.6484c0 10.3174 -6.13867 19.2236 -14.9541 23.2734v-50.1094
c20.7451 -4.83691 36.251 -23.4678 36.251 -45.666c0 -22.1963 -15.5059 -40.8281 -36.251 -45.665v-5.80078l79.8428 1.16113c22.4463 23.3955 34.7373 53.8975 34.7373 86.5527c0 69.0498 -56.1758 125.226 -125.226 125.226
c-69.0488 0 -125.225 -56.1758 -125.225 -125.226c0 -24.1924 6.90625 -47.665 19.9736 -67.8789c9.59375 -14.8389 22.124 -27.4043 36.7607 -36.9736c0.916992 1.25781 1.90039 2.46973 2.9668 3.61816c7.42188 7.99707 17.9365 12.6758 28.8467 12.834zM225.706 279.397
v46.5459c-8.81445 -4.0498 -14.9531 -12.9561 -14.9531 -23.2734c0 -10.3184 6.13867 -19.2246 14.9531 -23.2725zM247.003 253.442v-46.5469c8.81543 4.04785 14.9541 12.9541 14.9541 23.2725s-6.13867 19.2246 -14.9541 23.2744z" />
    <glyph glyph-name="uniF11D" unicode="&#xf11d;" 
d="M491.563 291.655c13.5977 -31.6875 20.4365 -64.665 20.4365 -99.374c0 -34.7158 -6.84375 -67.9736 -20.4355 -99.6621c-27 -62.9277 -72.8701 -108.983 -136.329 -136.049c-31.7129 -13.5205 -64.9463 -20.4297 -99.6562 -20.4297s-67.6865 6.83789 -99.375 20.4297
c-62.9268 27 -109.007 73.0146 -136.049 136.049c-13.5508 31.5869 -20.1553 64.9463 -20.1553 99.6621c0 34.709 6.60449 67.7939 20.1553 99.374c27.042 63.0342 73.1162 108.774 136.049 135.768c31.6826 13.5928 64.666 20.4365 99.375 20.4365
c34.7148 0 67.9434 -6.90918 99.6611 -20.4365c63.459 -27.0645 109.329 -72.834 136.323 -135.768zM450.697 79.1816c20.2158 34.6807 30.2246 72.5068 30.2246 113.1c0 40.5908 -10.0752 78.1016 -30.2305 112.53c-20.1553 34.4346 -47.627 61.8037 -82.3008 82.0195
c-34.4648 20.0957 -72.2197 30.2363 -112.812 30.2363c-40.585 0 -78.1016 -10.0811 -112.524 -30.2363c-34.4287 -20.1562 -61.9658 -47.5264 -82.0195 -82.0205c-19.9834 -34.3682 -29.9561 -71.9385 -29.9561 -112.53c0 -30.5166 5.75684 -59.959 17.6357 -87.6211
c11.9141 -27.7637 27.8467 -51.9277 47.8652 -71.9453c20.0176 -20.0127 43.9482 -35.833 71.6641 -47.8662c27.7168 -12.04 56.8301 -17.916 87.3408 -17.916c40.5859 0 78.3477 10.1348 112.812 30.2305c34.6738 20.2148 62.2051 47.5557 82.3008 82.0195zM271.816 194.52
l78.3838 -78.9443c6.01367 -6.05566 6.4375 -15.3965 0 -21.834c-5.59668 -5.60156 -15.9521 -5.60156 -21.5527 0l-83.7051 83.6982c-3.35645 3.3623 -4.75977 7.56152 -4.19824 12.6016c0 0.835938 -0.561523 1.95898 -0.561523 2.24023v147.246
c0 8.67676 7.28027 15.6758 15.3955 15.6758c8.67871 0 16.2383 -6.99902 16.2383 -15.6758v-145.008z" />
    <glyph glyph-name="uniF104" unicode="&#xf104;" 
d="M0 315.429h512v-356.571h-512v356.571zM493.714 -22.8574v320h-475.428v-320h475.428zM27.4287 333.714c-5.04688 0 -9.14258 4.09668 -9.14258 9.14355s4.0957 9.14258 9.14258 9.14258h457.143c5.04688 0 9.14258 -4.0957 9.14258 -9.14258
s-4.0957 -9.14355 -9.14258 -9.14355h-457.143zM54.8574 370.286c-5.04688 0 -9.14355 4.0957 -9.14355 9.14258s4.09668 9.14258 9.14355 9.14258h402.285c5.04688 0 9.14355 -4.0957 9.14355 -9.14258s-4.09668 -9.14258 -9.14355 -9.14258h-402.285zM82.2861 406.857
c-5.04688 0 -9.14355 4.0957 -9.14355 9.14258s4.09668 9.14258 9.14355 9.14258h347.428c5.04688 0 9.14355 -4.0957 9.14355 -9.14258s-4.09668 -9.14258 -9.14355 -9.14258h-347.428z" />
    <glyph glyph-name="uniF10F" unicode="&#xf10f;" 
d="M505.943 441.942c8.0752 -8.07715 8.0752 -21.1729 0 -29.248l-470.636 -470.636c-4.03906 -4.04004 -9.33203 -6.05859 -14.625 -6.05859s-10.5869 2.01758 -14.625 6.05762c-8.07617 8.07715 -8.07617 21.1729 0 29.249l470.637 470.636
c8.07715 8.07617 21.1719 8.07617 29.249 0zM505.942 -28.6943c8.0752 -8.07715 8.0752 -21.1719 0.000976562 -29.25c-4.03711 -4.03809 -9.33105 -6.05664 -14.624 -6.05664s-10.5869 2.01855 -14.625 6.05762l-470.637 470.637
c-8.07617 8.07617 -8.07617 21.1719 0 29.248s21.1729 8.07617 29.248 0z" />
    <glyph glyph-name="uniF108" unicode="&#xf108;" 
d="M55.0996 307.113c-30.3203 0 -55.0996 24.8838 -55.0996 55.2051c0 30.3203 24.6748 55.0996 55.0996 55.0996c30.4258 0 55.1006 -24.8838 55.1006 -55.2041c0 -30.3213 -24.6748 -55.1006 -55.1006 -55.1006zM55.0996 391.803
c-16.2061 0 -29.4844 -13.2783 -29.4844 -29.4844s13.2783 -29.4844 29.4844 -29.4844s29.4844 13.2783 29.4844 29.4844s-13.1738 29.4844 -29.4844 29.4844zM55.0996 136.9c-30.3203 0 -55.0996 24.6748 -55.0996 55.0996s24.6748 55.0996 55.0996 55.0996
c30.4258 0 55.1006 -24.7793 55.1006 -55.0996s-24.6748 -55.0996 -55.1006 -55.0996zM55.0996 221.484c-16.2061 0 -29.4844 -13.1738 -29.4844 -29.4844s13.2783 -29.4844 29.4844 -29.4844s29.4844 13.2783 29.4844 29.4844s-13.1738 29.4844 -29.4844 29.4844z
M55.0996 -33.418c-30.3203 0 -55.0996 24.7793 -55.0996 55.0996c0 30.3213 24.7793 55.0996 55.0996 55.0996c30.3213 0 55.1006 -24.6738 55.1006 -55.0996c0 -30.3203 -24.6748 -55.0996 -55.1006 -55.0996zM55.0996 51.2705
c-16.2061 0 -29.4844 -13.2783 -29.4844 -29.4844s13.2783 -29.4844 29.4844 -29.4844s29.4844 13.1738 29.4844 29.4844c0 16.2061 -13.1738 29.4844 -29.4844 29.4844zM183.91 349.458c-7.10938 0 -12.8604 5.75 -12.8604 12.8604
c0 7.10938 5.75098 12.8604 12.8604 12.8604h315.229c7.11035 0 12.8604 -5.75098 12.8604 -12.8604c0 -7.11035 -5.75 -12.8604 -12.8604 -12.8604h-315.229zM183.91 179.14c-7.10938 0 -12.8604 5.75098 -12.8604 12.8604s5.75098 12.8604 12.8604 12.8604h315.229
c7.11035 0 12.8604 -5.75098 12.8604 -12.8604s-5.75 -12.8604 -12.8604 -12.8604h-315.229zM183.91 8.92676c-7.10938 0 -12.8604 5.75 -12.8604 12.8594c0 7.11035 5.75098 12.8604 12.8604 12.8604h315.229c7.11035 0 12.8604 -5.75 12.8604 -12.8604
c0 -7.10938 -5.75 -12.8594 -12.8604 -12.8594h-315.229z" />
    <glyph glyph-name="uniF116" unicode="&#xf116;" 
d="M407.579 448l67.3682 -44.8672v-422.249l-67.3682 -44.8838l-50.5264 33.6846l-50.5264 -33.6846l-50.5264 33.6846l-50.5264 -33.6846l-50.5264 33.6846l-50.5264 -33.6846l-67.3682 44.8838v422.232l67.3682 44.8838l50.5264 -33.6846l50.5264 33.6846
l50.5264 -33.6846l50.5264 33.6846l50.5264 -33.6846zM441.263 -1.09473v386.189l-33.6836 22.4844l-50.5264 -33.6846l-50.5264 33.6846l-50.5264 -33.6846l-50.5264 33.6846l-50.5264 -33.6846l-50.5264 33.6846l-33.6836 -22.4844v-386.189l33.5996 -22.4844
l50.5264 33.6846l50.5264 -33.6846l50.5264 33.6846l50.5264 -33.6846l50.5264 33.6846l50.6104 -33.6846zM138.105 276.211v33.6836h235.789v-33.6836h-235.789zM138.105 208.842v33.6846h235.789v-33.6846h-235.789zM138.105 141.474v33.6846h235.789v-33.6846h-235.789z
M138.105 74.1055v33.6836h101.053v-33.6836h-101.053zM340.211 74.1055v33.6836h33.6836v-33.6836h-33.6836zM272.842 74.1055v33.6836h33.6846v-33.6836h-33.6846z" />
    <glyph glyph-name="uniF100" unicode="&#xf100;" 
d="M511.06 29.6943c1.25293 -3.02246 1.25293 -6.41992 0.00195312 -9.44336c-1.25391 -3.02344 -3.6543 -5.4248 -6.67578 -6.67578l-46.3672 -19.2197c-1.54492 -0.640625 -3.14355 -0.944336 -4.71875 -0.944336c-4.83691 0 -9.42969 2.86523 -11.3975 7.61719
c-2.60645 6.29102 0.37793 13.5059 6.66992 16.1162l18.8594 7.81738l-44.3525 18.3564l-162.86 -59.3301s-2.28516 -0.745117 -4.20117 -0.745117s-4.23633 0.745117 -4.23633 0.745117l-162.86 59.3301l-44.3525 -18.3564l18.8574 -7.81738
c6.29492 -2.61035 9.28027 -9.82715 6.6709 -16.1162c-1.9668 -4.75293 -6.56055 -7.61719 -11.3984 -7.61719c-1.57324 0 -3.17285 0.303711 -4.7168 0.944336l-46.3672 19.2197c-3.02246 1.25098 -5.42285 3.6543 -6.67578 6.67578
c-1.25098 3.02246 -1.25098 6.4209 0.00390625 9.44336l19.2217 46.3633c2.6084 6.29297 9.82031 9.28125 16.1191 6.6709c6.29102 -2.60938 9.27734 -9.8252 6.66797 -16.1201l-7.81738 -18.8564l41.6836 17.25v183.833c0 5.18359 3.24023 9.81543 8.11328 11.5898
l158.736 57.8291v40.3955l-14.4346 -14.4365c-4.81934 -4.81738 -12.6299 -4.81445 -17.4463 0c-4.81543 4.81836 -4.81543 12.626 0 17.4414l35.4941 35.4922c4.81836 4.81738 12.624 4.81543 17.4414 0l35.4932 -35.4922c4.81738 -4.81543 4.81738 -12.623 0 -17.4414
c-2.41016 -2.40723 -5.56738 -3.6123 -8.72168 -3.6123c-3.1582 0 -6.31543 1.2041 -8.72363 3.6123l-14.4355 14.4365v-40.3955l158.737 -57.8281c4.875 -1.77441 8.11328 -6.40527 8.11328 -11.5898v-183.834l41.6846 -17.25l-7.81738 18.8564
c-2.60938 6.29785 0.37793 13.5107 6.66602 16.1201c6.2959 2.60645 13.5107 -0.380859 16.1211 -6.6709zM243.666 13.1934v93.1465l-121.008 -49.0674zM243.666 132.939v39.4971l-142.182 57.3838v-154.269zM243.666 199.035v92.9629l-121.056 -44.1006zM268.334 291.998
v-92.9629l121.057 48.8623zM268.334 13.1934l121.008 44.0791l-121.008 49.0674v-93.1465zM410.514 75.5518h0.00292969v154.268l-142.183 -57.3838v-39.4961z" />
    <glyph glyph-name="uniF10B" unicode="&#xf10b;" 
d="M345.004 313.544c-6.11914 0 -11.126 5.00684 -11.126 11.126c0 6.11816 5.00684 11.125 11.126 11.125h16.6875c6.11914 0 11.126 -5.00684 11.126 -11.125c0 -6.11914 -5.00684 -11.126 -11.126 -11.126h-16.6875zM509.659 412.561
c3.89453 -7.78809 2.78125 -16.6885 -2.22461 -23.3643l-195.807 -246.427v-109.585c0 -10.5693 -5.00684 -20.582 -13.9072 -27.2578l-61.7461 -42.832c-3.89355 -2.78125 -8.34375 -3.89453 -12.7939 -3.89453c-3.89355 0 -7.23145 1.11328 -10.5693 2.78223
c-7.23145 3.89355 -11.6816 11.125 -11.6816 19.4688v160.762l-196.362 246.983c-5.00684 6.67578 -6.11914 15.5762 -2.22559 23.3643c3.89355 7.23145 11.6816 12.2373 20.0254 12.2373h467.267c8.34375 0 16.1318 -4.4502 20.0254 -12.2373zM291.602 153.339
l198.032 249.208h-467.267l53.4023 -66.752h2.22461h216.945c6.11914 0 11.125 -5.00684 11.125 -11.125c0 -6.11914 -5.00586 -11.126 -11.125 -11.126h-201.926l125.717 -157.98c2.78125 -1.66895 4.4502 -5.00586 4.4502 -8.90039v-165.212l61.7461 42.833
c2.78125 2.22461 4.4502 5.5625 4.4502 9.45605v112.923c0 2.78125 1.1123 5.00684 2.22461 6.67578z" />
    <glyph glyph-name="uniF123" unicode="&#xf123;" 
d="M247.328 -34.6621c8.04102 0 14.6689 -6.51953 14.6689 -14.6689s-6.51953 -14.6689 -14.6689 -14.6689h-133.542c-52.373 0 -95.0762 42.5938 -95.0762 95.0762v321.848c0 52.373 42.5938 95.0762 95.0762 95.0762h135.715c8.14941 0 14.6689 -6.51953 14.6689 -14.6689
s-6.51953 -14.6689 -14.6689 -14.6689h-135.715c-36.1836 0 -65.7383 -29.4463 -65.7383 -65.7383v-321.848c0 -36.1836 29.4463 -65.7383 65.7383 -65.7383h133.542zM488.985 202.322c5.75879 -5.65039 5.75879 -14.9941 -0.109375 -20.8623l-93.2285 -93.2295
c-2.8252 -2.93359 -6.62891 -4.3457 -10.3232 -4.3457s-7.49707 1.52148 -10.3223 4.3457c-5.75879 5.75977 -5.75879 14.9951 0 20.7539l68.2373 68.2383h-297.616c-8.14941 0 -14.6689 6.51953 -14.6689 14.6689s6.51953 14.6689 14.6689 14.6689h297.616
l-68.2373 68.2373c-5.75879 5.75879 -5.75879 14.9951 0 20.7539s14.9951 5.75879 20.7539 0z" />
    <glyph glyph-name="uniF12C" unicode="&#xf12c;" 
d="M255.999 448c141.16 0 255.999 -114.841 255.999 -255.999s-114.839 -255.999 -255.999 -255.999c-5.75293 0 -10.4189 4.66602 -10.4189 10.4189s4.66602 10.4189 10.4189 10.4189c129.668 0 235.161 105.493 235.161 235.161
c0 129.667 -105.493 235.161 -235.161 235.161c-129.667 0 -235.161 -105.494 -235.161 -235.161c0 -65.3506 27.5312 -128.292 75.5352 -172.688c4.22656 -3.90723 4.4834 -10.4971 0.577148 -14.7236c-3.90723 -4.22266 -10.499 -4.48145 -14.7246 -0.574219
c-52.2549 48.3271 -82.2256 116.845 -82.2256 187.986c0 141.158 114.841 255.999 255.999 255.999zM146.188 291.393c-5.75293 0 -10.4189 4.66602 -10.4189 10.4189s4.66602 10.4189 10.4189 10.4189h219.623c5.75293 0 10.4189 -4.66602 10.4189 -10.4189
s-4.66602 -10.4189 -10.4189 -10.4189h-219.623zM146.188 181.582c-5.75293 0 -10.4189 4.66602 -10.4189 10.4189s4.66602 10.4189 10.4189 10.4189h219.623c5.75293 0 10.4189 -4.66602 10.4189 -10.4189s-4.66602 -10.4189 -10.4189 -10.4189h-219.623zM376.23 82.1885
c0 -5.75293 -4.66602 -10.4189 -10.4189 -10.4189h-219.623c-5.75293 0 -10.4189 4.66602 -10.4189 10.4189s4.66602 10.4189 10.4189 10.4189h219.623c5.75293 0 10.4189 -4.66602 10.4189 -10.4189z" />
    <glyph glyph-name="uniF115" unicode="&#xf115;" 
d="M472.473 135.935c6.04297 0 10.9404 -4.89648 10.9404 -10.9385v-146.771c0 -6.04395 -4.89746 -10.9404 -10.9404 -10.9404h-112.192c-6.04395 0 -10.9404 4.89648 -10.9404 10.9404v174.176l-85.1396 85.1416
c-0.00488281 0.00488281 -0.00878906 0.0107422 -0.0136719 0.0146484v0c-5.96094 5.96191 -15.6846 5.96289 -21.6611 -0.015625l-43.4258 -43.4268c-2.89551 -2.89551 -4.49121 -6.74316 -4.49121 -10.8389c0 -4.09473 1.5957 -7.94434 4.49121 -10.8389
l0.374023 -0.374023c5.97363 -5.97852 15.7002 -5.97852 21.6748 0l21.7822 21.7793c4.27148 4.27051 11.1982 4.27246 15.4707 -0.00195312c4.27246 -4.27051 4.27246 -11.1982 -0.000976562 -15.4707l-21.7812 -21.7793
c-7.25195 -7.25293 -16.7822 -10.8789 -26.3086 -10.8799c-9.52832 0 -19.0547 3.62598 -26.3105 10.8799l-0.374023 0.375c-7.02832 7.02734 -10.8994 16.3721 -10.8994 26.3105c0 9.9375 3.87207 19.2832 10.8994 26.3115l29.1348 29.1348v22.9502
c0 3.40527 1.58789 6.61719 4.29199 8.68945c23.5049 17.9824 36.9863 45.1621 36.9863 74.5674c0 27.7686 -12.2402 53.7227 -32.8613 71.377v-87.5703c0 -6.04297 -4.89648 -10.9395 -10.9404 -10.9395h-100.27c-6.04297 0 -10.9395 4.89648 -10.9395 10.9395v87.5703
c-20.624 -17.6543 -32.8623 -43.6074 -32.8623 -71.377c0 -29.4043 13.4805 -56.584 36.9854 -74.5693c2.70508 -2.07031 4.29199 -5.28223 4.29199 -8.6875v-33.751h19.7676c20.5176 0 37.208 -16.6914 37.208 -37.208v-0.53125
c0 -10.2441 -4.16113 -19.5332 -10.8818 -26.2676c6.7207 -6.73535 10.8818 -16.0254 10.8818 -26.2676v-0.53125c0 -10.2441 -4.16113 -19.5332 -10.8818 -26.2676c6.7207 -6.73535 10.8818 -16.0254 10.8818 -26.2686v-0.530273
c0 -10.2451 -4.16113 -19.5332 -10.8818 -26.2686c6.7207 -6.73438 10.8818 -16.0244 10.8818 -26.2676v-0.529297c0 -20.5176 -16.6914 -37.21 -37.208 -37.21h-17.2197c6.83887 -21.0078 26.6514 -35.8945 49.4746 -35.8945h1.27148
c28.6846 0 52.0225 23.3369 52.0225 52.0225v96.0361c0 6.04297 4.89648 10.9395 10.9404 10.9395c6.04297 0 10.9395 -4.89648 10.9395 -10.9395v-90.2832h85.543c6.04297 0 10.9404 -4.89746 10.9404 -10.9404s-4.89746 -10.9404 -10.9404 -10.9404h-87.3359
c-7.38086 -33.0166 -36.8984 -57.7744 -72.1094 -57.7744h-1.27148c-34.8174 0 -64.7061 24.4004 -72.1348 57.7744h-21.5361c-20.5176 0 -37.208 16.6934 -37.208 37.21v0.529297c0 10.2441 4.16211 19.5332 10.8818 26.2676
c-6.71973 6.73535 -10.8818 16.0254 -10.8818 26.2686v0.530273c0 10.2441 4.16211 19.5332 10.8818 26.2686c-6.71973 6.73438 -10.8818 16.0244 -10.8818 26.2676v0.53125c0 10.2441 4.16211 19.5322 10.8818 26.2676c-6.71973 6.73438 -10.8818 16.0244 -10.8818 26.2676
v0.53125c0 20.5176 16.6914 37.208 37.208 37.208h19.7686v28.5039c-26.3047 22.1074 -41.2793 54.0615 -41.2793 88.5039c0 42.4209 23.1611 81.4043 60.4443 101.738c3.38965 1.84473 7.50488 1.77246 10.8232 -0.198242s5.35547 -5.54785 5.35547 -9.40723v-97.3877
h78.3887v97.3857c0 3.86035 2.03613 7.43555 5.35547 9.40723c3.31934 1.96973 7.43555 2.04688 10.8232 0.197266c37.2832 -20.3311 60.4443 -59.3154 60.4443 -101.735c0 -31.875 -12.8301 -61.6094 -35.5898 -83.3887c13.2314 4.92773 28.7236 2.0918 39.3428 -8.52734
l69.668 -69.668v5.54199c0 6.04297 4.89648 10.9395 10.9404 10.9395h112.192c6.04297 0 10.9404 -4.89648 10.9404 -10.9395c0 -6.04395 -4.89746 -10.9404 -10.9404 -10.9404h-101.253v-21.0059v-0.0146484v-167.763h90.3125v135.832
c0 6.04297 4.89746 10.9395 10.9404 10.9395zM142.537 137.647c0 8.45117 -6.87402 15.3281 -15.3262 15.3281h-61.416c-8.45117 0 -15.3271 -6.87695 -15.3271 -15.3281v-0.53125c0 -8.45117 6.87598 -15.3271 15.3271 -15.3271h61.415
c8.45117 0 15.3271 6.87598 15.3271 15.3271v0.53125zM142.537 84.5811c0 8.45117 -6.87402 15.3271 -15.3262 15.3271h-61.416c-8.45117 0 -15.3271 -6.87598 -15.3271 -15.3271v-0.53125c0 -8.45117 6.87598 -15.3281 15.3271 -15.3281h61.415
c8.45117 0 15.3271 6.87695 15.3271 15.3281v0.53125zM142.537 30.9844h0.00195312v0.530273c0 8.45117 -6.87598 15.3271 -15.3281 15.3271h-61.416c-8.45117 0 -15.3271 -6.87598 -15.3271 -15.3271v-0.530273c0 -8.45312 6.87598 -15.3291 15.3271 -15.3291h61.415
c8.45117 0 15.3271 6.87598 15.3271 15.3291zM142.537 190.714c0 8.45215 -6.87402 15.3281 -15.3262 15.3281h-61.416c-8.45117 0 -15.3271 -6.87598 -15.3271 -15.3281v-0.530273c0 -8.45215 6.87598 -15.3281 15.3271 -15.3281h61.415
c8.45117 0 15.3271 6.87598 15.3271 15.3281v0.530273z" />
    <glyph glyph-name="uniF121" unicode="&#xf121;" 
d="M473.104 -5.65625c9.12891 0 16.6699 -7.54102 16.6699 -16.2725s-7.14355 -16.2725 -16.2725 -16.2725h-434.604c-8.73242 0 -16.2734 7.54102 -16.2734 16.2725s7.14453 16.2725 16.2734 16.2725h434.207zM22.623 138.419c0 4.36523 1.98438 8.33496 4.7627 11.5098
l212.738 212.341l53.1846 53.582c6.74707 6.34961 17.0664 6.34961 23.417 0l76.2051 -76.999c6.34961 -6.74707 6.34961 -17.0664 0 -23.417l-265.923 -265.923c-3.1748 -3.1748 -7.14453 -4.7627 -11.5098 -4.7627l-76.999 -0.396484
c-4.36523 0 -8.33496 1.58789 -11.5098 4.7627c-3.17578 3.1748 -4.7627 7.54102 -4.7627 11.9072zM305.216 380.924l-30.165 -30.1641l53.582 -53.5811l30.1641 30.1641zM55.5654 131.274l-0.396484 -53.5811l53.9785 0.396484l196.068 195.672l-53.582 53.5811z" />
    <glyph glyph-name="uniF117" unicode="&#xf117;" 
d="M41.6748 324.167c-8.73242 0 -16.2734 7.14453 -16.2734 16.2734s7.14453 16.2725 16.2734 16.2725h32.5449h92.0811v49.6123c0 9.12891 7.14453 16.2734 16.2725 16.2734h146.854c9.12793 0 16.2725 -7.14453 16.2725 -16.2734v-49.6123h92.0811h32.5449
c9.12891 0 16.2734 -7.14355 16.2734 -16.2725s-7.14453 -16.2734 -16.2734 -16.2734h-17.8604l-41.6738 -348.08c-1.19141 -8.33496 -7.93848 -14.2881 -16.2734 -14.2881h-277.035c-8.33496 0 -15.4795 5.95312 -16.2734 14.2881l-41.6738 348.08h-17.8604z
M198.847 390.053v-33.3398h114.307v33.3398h-114.307zM419.522 324.167h-327.045l39.293 -330.22h248.459zM202.021 43.5596c-9.12891 0 -16.2725 7.14453 -16.2725 16.2734v194.877c0 9.12891 7.14355 16.2734 16.2725 16.2734s16.2734 -7.14453 16.2734 -16.2734v-194.877
c0 -9.12891 -7.14453 -16.2734 -16.2734 -16.2734zM309.979 43.5596c-8.73242 0 -16.2734 7.14453 -16.2734 16.2734v194.877c0 9.12891 7.14453 16.2734 16.2734 16.2734s16.2725 -7.14453 16.2725 -16.2734v-194.877c0 -9.12891 -7.14355 -16.2734 -16.2725 -16.2734z" />
    <glyph glyph-name="uniF114" unicode="&#xf114;" 
d="M255.993 448c141.379 0 256.005 -114.614 256.005 -255.995c0 -141.38 -114.626 -256.005 -256.005 -256.005s-255.991 114.632 -255.991 256.005c0 141.374 114.612 255.995 255.991 255.995zM377.688 263.773c2.86719 2.86426 2.86719 7.5166 0.00390625 10.3809
l-39.1201 39.1113c-2.86426 2.86719 -7.5166 2.86719 -10.3799 0.00878906l-195.362 -195.371l0.233398 -0.233398c-2.20508 -1.33887 -3.81934 -3.52441 -4.39941 -6.11328l-10.2861 -46.1396c-0.716797 -3.21094 0.25293 -6.56055 2.58008 -8.87988
c1.81445 -1.81934 4.26172 -2.81152 6.78125 -2.81152c0.694336 0 1.39746 0.0751953 2.08887 0.230469l46.1533 10.291c2.59082 0.575195 4.77148 2.18652 6.11328 4.39551l0.230469 -0.230469l12.0967 12.0967l-49.4922 49.4912l18.7773 18.7773l49.4912 -49.4873
l121.398 121.389l-49.4941 49.4951l18.7764 18.7764l49.4951 -49.4912z" />
    <glyph glyph-name="uniF119" unicode="&#xf119;" 
d="M18.2207 173.779c-10.0791 0 -18.0908 8.27148 -18.0908 18.3506s8.01172 18.0908 18.0908 18.0908h219.412v219.429c0.0166016 10.0791 8.28809 18.3506 18.3672 18.3506s18.0898 -8.27148 18.0898 -18.3506v-219.429h219.413
c10.0791 0 18.3506 -8.01172 18.3506 -18.0908s-8.27148 -18.3506 -18.3506 -18.3506h-219.413v-219.429c0 -10.0791 -8.01074 -18.3506 -18.0898 -18.3506s-18.3506 8.27148 -18.3506 18.3506v219.429h-219.429z" />
    <glyph glyph-name="uniF124" unicode="&#xf124;" 
d="M507.516 -37.8887c5.90332 -5.90332 5.90332 -15.667 0 -21.5703c-2.95117 -3.06543 -6.9248 -4.54102 -10.7852 -4.54102c-3.85938 0 -7.83301 1.58984 -10.7842 4.54102l-124.425 124.424c-38.3711 -33.376 -88.4355 -53.584 -143.155 -53.584
c-120.337 0 -218.31 97.9727 -218.31 218.31s97.8594 218.31 218.31 218.31c120.337 0 218.31 -97.8594 218.31 -218.31c0 -54.7197 -20.207 -104.784 -53.584 -143.155zM30.5947 229.69c0 -103.535 84.2363 -187.771 187.658 -187.771
c103.535 0 187.657 84.3496 187.657 187.771s-84.1221 187.657 -187.657 187.657c-103.422 0 -187.658 -84.1221 -187.658 -187.657z" />
    <glyph glyph-name="uniF127" unicode="&#xf127;" 
d="M146.877 241.131c-4.91309 0 -8.79199 4.91406 -8.79199 9.82715s4.1377 9.0498 9.05078 9.0498h57.6641l9.30957 19.9111c1.55078 3.62012 4.91309 5.94727 8.79199 5.94727v0c3.62012 0 6.98145 -2.06836 8.79199 -5.42969l9.56738 -19.1357l14.7393 45.2529
c1.55176 4.91309 5.94727 6.98145 9.56738 6.72266c3.62012 -0.257812 7.75781 -2.84375 8.79199 -8.01562l12.4121 -62.0605l4.1377 11.6357c1.55176 4.39648 5.94727 7.24121 10.6016 7.24121v0l58.1826 -0.517578c5.1709 0 9.0498 -3.62012 9.0498 -8.5332
s-4.13672 -8.79199 -9.0498 -8.79199v0l-53.2695 0.258789l-13.1875 -35.6855c-1.81055 -4.39551 -5.68848 -6.72266 -9.05078 -6.72266h-0.775391c-3.36133 0.258789 -7.49902 2.58594 -8.5332 7.75781l-11.8955 59.4746l-11.1191 -33.875
c-1.29297 -3.87891 -4.6543 -6.72363 -8.5332 -6.98145c-3.87891 -0.258789 -7.49902 1.80957 -9.30859 5.42969l-11.1191 22.2383l-3.62012 -7.75684c-1.55176 -3.62012 -5.43066 -7.24121 -10.3438 -7.24121h-62.0605zM358.917 176.484
c5.68945 0 10.3438 -4.6543 10.3438 -10.3428c0 -5.68945 -4.6543 -10.3438 -10.3438 -10.3438h-212.04c-5.68945 0 -10.3438 4.6543 -10.3438 10.3438c0 5.68848 4.6543 10.3428 10.3438 10.3428h212.04zM358.917 122.182c5.68945 0 10.3438 -4.6543 10.3438 -10.3428
c0 -5.68945 -4.6543 -10.3438 -10.3438 -10.3438h-212.04c-5.68945 0 -10.3438 4.6543 -10.3438 10.3438c0 5.68848 4.6543 10.3428 10.3438 10.3428h212.04zM358.917 67.8789c5.68945 0 10.3438 -4.6543 10.3438 -10.3438c0 -5.68848 -4.6543 -10.3428 -10.3438 -10.3428
h-212.04c-5.68945 0 -10.3438 4.6543 -10.3438 10.3428c0 5.68945 4.6543 10.3438 10.3438 10.3438h212.04zM358.917 10.9902c5.68945 0 10.3438 -4.65527 10.3438 -10.3438s-4.6543 -10.3438 -10.3438 -10.3438h-212.04c-5.68945 0 -10.3438 4.65527 -10.3438 10.3438
s4.6543 10.3438 10.3438 10.3438h212.04zM422.788 391.111c6.98145 0 12.6709 -5.68945 12.9287 -12.9297v-430.028c0 -6.98145 -5.68848 -12.1533 -12.6699 -12.1533h-333.317c-7.24023 0 -13.4463 5.17188 -13.4463 12.1533v430.028
c0 7.24023 6.46387 12.9297 13.4463 12.9297h51.2002v15.5146h51.7168c17.0664 41.374 66.457 41.374 68.7842 41.374v0v0c2.32715 0 53.0098 0 70.335 -41.374h36.4609v-15.5146h54.5615zM158.771 373.527v-18.877h102.4v0h89.4707v18.6182v14.998h-31.5479
l-0.775391 2.84473l-1.29297 4.13672c-2.06836 6.72363 -5.43066 12.1543 -9.56738 16.5498c-0.258789 0.517578 -0.517578 1.03418 -1.03516 1.29297c-0.516602 0.517578 -1.29297 1.03418 -1.80957 1.55176c-0.517578 0.516602 -1.29297 1.03418 -1.81055 1.55176
c-1.29297 1.03418 -2.84375 2.06836 -4.13672 3.10254c-0.517578 0.517578 -1.03516 0.775391 -1.55176 1.03418c-2.58594 1.55176 -5.43066 3.10352 -8.0166 4.1377c-2.06836 1.03418 -3.87891 1.80957 -5.94727 2.32715
c-0.775391 0.258789 -1.55176 0.258789 -2.06836 0.517578c-4.6543 1.29297 -8.79199 2.06836 -12.1533 2.58594h-1.03516h-1.29297c-0.775391 0 -1.55078 -0.258789 -2.06836 -0.258789v0v0v0v0h-1.03418h-0.775391h-1.03516v0h-0.257812
c-0.258789 0 -1.55176 0.258789 -1.55176 0.258789v0.257812c-5.17188 -0.257812 -42.9258 -3.10254 -52.752 -35.167l-0.775391 -3.62012l-0.258789 -0.776367l-0.516602 -2.06836h-46.8047v-14.998zM417.357 -48.4844v421.494h-49.1309v-36.2021h-107.572h-119.983
v36.2021h-46.5459v-421.494h323.232z" />
    <glyph glyph-name="uniF11B" unicode="&#xf11b;" 
d="M256 -64c-141.161 0 -256 114.839 -256 256s114.839 256 256 256c47.8193 0 94.4619 -13.2715 134.895 -38.3848c7.06641 -4.38477 9.23145 -13.6699 4.84668 -20.7373c-4.39258 -7.06641 -13.6777 -9.24805 -20.7373 -4.84668
c-35.6553 22.1494 -76.8076 33.8506 -119.004 33.8506c-124.553 0 -225.883 -101.334 -225.883 -225.883c0 -124.55 101.33 -225.882 225.883 -225.882c124.55 0 225.883 101.333 225.883 225.883c0 25.0352 -4.06348 49.6162 -12.0781 73.0586
c-2.69043 7.86719 1.51367 16.4316 9.38086 19.1211c7.88281 2.6748 16.4316 -1.51367 19.1221 -9.38086c9.08203 -26.5879 13.6934 -54.4463 13.6934 -82.7998c-0.000976562 -141.16 -114.84 -255.999 -256.001 -255.999zM256 105.146
c-3.81934 0 -7.51367 1.45117 -10.3096 4.08691l-120.471 113.168c-6.0625 5.69336 -6.36035 15.2227 -0.666016 21.2852c5.69434 6.05469 15.2236 6.36914 21.2861 0.65918l108.883 -102.282l197.85 234.871c5.34961 6.36035 14.8555 7.17578 21.2158 1.81152
c6.36035 -5.35645 7.17578 -14.8545 1.8125 -21.2148l-208.087 -247.028c-2.65918 -3.16016 -6.50977 -5.09082 -10.6357 -5.33398c-0.289062 -0.0146484 -0.587891 -0.0224609 -0.87793 -0.0224609z" />
    <glyph glyph-name="uniF112" unicode="&#xf112;" 
d="M511.998 360.196c0 -0.00976562 0.000976562 -0.0185547 0.00195312 -0.0283203v-335.231c0 -13.3096 -10.8281 -24.1367 -24.1367 -24.1367h-138.52c-2.75488 -4.06055 -6.63281 -7.28027 -11.3115 -9.30078c-4.60352 -1.98828 -9.68262 -2.63281 -14.582 -1.92969
c0.458984 -4.19922 -0.0878906 -8.56738 -1.79199 -12.7461c-4.15527 -10.1895 -14.0127 -16.374 -24.3916 -16.374c-3.30273 -0.000976562 -6.65723 0.625977 -9.89941 1.94727l-94.1807 38.4023h-110.473c-13.3096 0 -24.1367 10.8281 -24.1367 24.1367v18.499
c0 4.03809 3.27246 7.31152 7.31055 7.31152s7.31152 -3.27344 7.31152 -7.31152v-18.499c0 -5.24609 4.26855 -9.51465 9.51465 -9.51465h74.6123l-10.1865 4.15332c-14.8926 6.07227 -28.085 15.916 -38.1475 28.4639
c-0.53125 0.663086 -1.07422 1.31738 -1.62598 1.96289c-1.10547 1.29004 -2.24902 2.54395 -3.43262 3.75879c-1.18262 1.21484 -2.40234 2.3916 -3.65918 3.5293c-6.90527 6.25195 -14.8848 11.29 -23.5449 14.8203
c-0.00585938 0.00195312 -0.0107422 0.00488281 -0.015625 0.0078125l-9.05371 3.69043l-0.361328 -0.884766c-2.29883 -5.63672 -7.75293 -9.05957 -13.4961 -9.05957c-1.82715 0 -3.68164 0.34668 -5.47461 1.07715l-39.2695 16.0127
c-7.43066 3.03027 -11.0117 11.541 -7.98145 18.9717l48.0166 117.763c1.46777 3.59863 4.24902 6.41211 7.83301 7.91895c3.58301 1.50684 7.54004 1.53027 11.1387 0.0605469l39.2686 -16.0107c2.7002 -1.10059 4.95703 -2.94043 6.55273 -5.30371
c0.532227 -0.788086 0.991211 -1.63379 1.36816 -2.53027c1.50684 -3.58301 1.5293 -7.53906 0.0605469 -11.1387l-1.49219 -3.66113l1.19727 -0.488281c0.15625 -0.046875 0.358398 -0.0957031 0.617188 -0.142578
c0.0273438 -0.00390625 0.0566406 -0.00878906 0.0849609 -0.0136719c0.0390625 -0.00683594 0.078125 -0.0136719 0.120117 -0.0205078c0.0576172 -0.00878906 0.120117 -0.0175781 0.182617 -0.0273438
c0.0166016 -0.00292969 0.0302734 -0.00488281 0.0458984 -0.00683594c4.15234 -0.561523 19.1133 -0.385742 72.3701 9.4248c0.913086 0.167969 1.84082 0.34082 2.77734 0.514648c2.32617 0.431641 4.71875 0.880859 7.18848 1.34961
c0.399414 0.0761719 0.802734 0.152344 1.2041 0.229492c1.39941 0.265625 2.8252 0.540039 4.27148 0.817383c1.80664 0.348633 3.63965 0.702148 5.52051 1.06934c42.4072 8.26855 83.0107 17.3994 83.416 17.4902
c0.0351562 0.00878906 0.0693359 0.0146484 0.104492 0.0224609c7.30957 1.53516 14.6807 -0.416016 20.1953 -4.73633c3.70605 -2.90332 6.5752 -6.875 8.02246 -11.585c3.87793 -12.6172 -3.21875 -26.0576 -15.8203 -29.958l-52.9658 -16.3945l113.787 -46.3965
c0.8125 -0.331055 1.60352 -0.700195 2.37109 -1.10449c5.36719 -2.82812 9.55859 -7.38574 11.9424 -13.0527c2.72559 -6.47656 2.76465 -13.627 0.111328 -20.1338c-1.58789 -3.89453 -4.02734 -7.27832 -7.11719 -9.95215
c0.0458984 -0.0263672 0.0869141 -0.0556641 0.131836 -0.0820312c0.543945 -0.3125 1.07422 -0.641602 1.59082 -0.990234c0.0957031 -0.0634766 0.1875 -0.129883 0.280273 -0.194336c0.517578 -0.358398 1.02441 -0.730469 1.51172 -1.12305
c0.0175781 -0.0136719 0.0341797 -0.0263672 0.0517578 -0.0390625c0.496094 -0.401367 0.97168 -0.826172 1.43652 -1.26367c0.0878906 -0.0820312 0.175781 -0.163086 0.262695 -0.24707c0.444336 -0.428711 0.873047 -0.873047 1.28613 -1.33398
c0.0771484 -0.0869141 0.152344 -0.174805 0.228516 -0.261719c0.416992 -0.476562 0.820312 -0.964844 1.20312 -1.47168c0.00683594 -0.00878906 0.0146484 -0.0185547 0.0214844 -0.0283203c0.384766 -0.512695 0.746094 -1.0459 1.09375 -1.58887
c0.0654297 -0.101562 0.131836 -0.202148 0.195312 -0.304688c0.329102 -0.529297 0.640625 -1.07227 0.93457 -1.62793c0.0546875 -0.106445 0.107422 -0.213867 0.162109 -0.321289c0.298828 -0.583008 0.581055 -1.1748 0.838867 -1.78516
c2.72461 -6.47559 2.76367 -13.626 0.110352 -20.1328c-5.04395 -12.3701 -18.4932 -18.8389 -31.0801 -15.502c0.0566406 -0.650391 0.0800781 -1.30469 0.0878906 -1.96094c0.000976562 -0.0830078 0.0117188 -0.166016 0.0117188 -0.249023h134.053
c5.24609 0 9.51465 4.26855 9.51465 9.51465v327.923h-154.971v-111.128c0 -4.3457 -2.55957 -8.30469 -6.52148 -10.0889c-3.96387 -1.7832 -8.625 -1.07422 -11.876 1.80859l-38.7217 34.3027l-38.7207 -34.3037c-2.05957 -1.82617 -4.68652 -2.78027 -7.34277 -2.78027
c-1.53516 0 -3.08008 0.319336 -4.53125 0.972656c-3.96289 1.7832 -6.52246 5.74316 -6.52246 10.0889v111.128h-154.972v-100.098c0 -4.03809 -3.27344 -7.31152 -7.31152 -7.31152s-7.31055 3.27344 -7.31055 7.31152v107.409
c0 0.00878906 0.000976562 0.0185547 0.000976562 0.0273438c0.000976562 0.0566406 0.0078125 0.113281 0.00878906 0.168945c0.00585938 0.222656 0.0195312 0.443359 0.0449219 0.661133c0.00976562 0.0800781 0.0253906 0.160156 0.0371094 0.240234
c0.0302734 0.199219 0.0673828 0.397461 0.113281 0.592773c0.0175781 0.0771484 0.0380859 0.152344 0.0585938 0.229492c0.0576172 0.211914 0.124023 0.418945 0.200195 0.62207c0.0146484 0.0380859 0.0224609 0.078125 0.0380859 0.117188l20.3447 52.0801
c2.05078 5.25 7.0166 8.6416 12.6533 8.6416h156.378h73.667h65.7295c4.03809 0 7.31055 -3.27246 7.31055 -7.31055s-3.27246 -7.31152 -7.31055 -7.31152h-56.5332l9.59082 -41.4482h153.074l-16.1914 41.4482h-36.3359c-4.03809 0 -7.31055 3.27344 -7.31055 7.31152
s3.27246 7.31055 7.31055 7.31055h37.0439c5.63477 0 10.6016 -3.3916 12.6533 -8.63965l20.3447 -52.082c0.0146484 -0.0380859 0.0244141 -0.078125 0.0380859 -0.117188c0.0761719 -0.204102 0.141602 -0.411133 0.200195 -0.62207
c0.0205078 -0.0771484 0.0410156 -0.152344 0.0585938 -0.229492c0.0458984 -0.194336 0.0830078 -0.392578 0.113281 -0.592773c0.0117188 -0.0800781 0.0263672 -0.160156 0.0371094 -0.240234c0.0253906 -0.217773 0.0390625 -0.438477 0.0449219 -0.661133
c0.00195312 -0.0566406 0.00878906 -0.113281 0.00878906 -0.168945zM254.267 408.928l-9.59082 -41.4482h81.2236l-9.59082 41.4482h-62.042zM229.668 367.479l9.59082 41.4482h-146.475l-16.1914 -41.4482h153.075zM327.786 249.639v103.219h-84.9932v-103.219
l35.1602 31.1494c2.0918 1.85254 4.71387 2.77832 7.33594 2.77832c2.62109 0 5.24316 -0.925781 7.33398 -2.77832l35.1621 -31.1494h0.000976562zM53.7852 80.5068l47.9658 117.634l-39.1436 15.9609l-47.9658 -117.635zM345.869 36.3857l10.1553 -4.13965
c0.691406 -0.282227 1.39453 -0.485352 2.10156 -0.62793c3.48535 -0.704102 7.05273 0.233398 9.7207 2.41602c0.0664062 0.0537109 0.126953 0.117188 0.192383 0.173828c0.414062 0.353516 0.802734 0.740234 1.16699 1.15332
c0.585938 0.666992 1.11133 1.39941 1.54199 2.20996c0.185547 0.347656 0.354492 0.708984 0.505859 1.08105c0.147461 0.361328 0.276367 0.727539 0.386719 1.09668c0.769531 2.58301 0.624023 5.3291 -0.435547 7.8457
c-0.907227 2.1582 -2.40332 3.95312 -4.31445 5.21289c-0.637695 0.419922 -1.32031 0.78125 -2.04297 1.0752l-105.955 43.2031c-3.74023 1.52441 -5.53516 5.79199 -4.00977 9.53027c1.52441 3.74023 5.79102 5.53516 9.5293 4.01074l87.3965 -35.6357
c0.160156 -0.0654297 0.325195 -0.113281 0.486328 -0.171875c0.204102 -0.0722656 0.407227 -0.15332 0.614258 -0.214844c0.200195 -0.0585938 0.40332 -0.0996094 0.605469 -0.147461c0.168945 -0.0400391 0.336914 -0.0898438 0.506836 -0.123047
c0.268555 -0.0527344 0.540039 -0.0830078 0.810547 -0.116211c0.105469 -0.0117188 0.208984 -0.0341797 0.314453 -0.0439453c0.354492 -0.0332031 0.709961 -0.046875 1.06543 -0.046875c0.0224609 0 0.0439453 -0.00292969 0.0664062 -0.00292969
c1.51465 0.00878906 3.02832 0.314453 4.46582 0.918945c2.87695 1.20996 5.10938 3.46777 6.28809 6.35742s1.16113 6.06543 -0.0488281 8.94238s-3.46777 5.11035 -6.3584 6.28809l-132.703 54.1104c-2.86035 1.16602 -4.67871 4.00293 -4.54395 7.08789
c0.132812 3.08691 2.19043 5.75391 5.1416 6.66699l72.4814 22.4346c3.37988 1.04492 5.74316 3.85156 6.39844 7.10449c0.297852 1.47852 0.243164 3.0498 -0.230469 4.58887c-1.34668 4.38281 -5.94727 7.09863 -10.6436 6.40332
c-0.182617 -0.0273438 -0.366211 -0.0488281 -0.548828 -0.0869141c-1.83301 -0.412109 -42.623 -9.56055 -84.8838 -17.7812c-1.49805 -0.291016 -2.96875 -0.574219 -4.4209 -0.854492c-0.492188 -0.09375 -0.975586 -0.186523 -1.46289 -0.280273
c-0.948242 -0.181641 -1.89355 -0.363281 -2.82227 -0.540039c-0.616211 -0.117188 -1.22559 -0.231445 -1.83496 -0.347656c-0.761719 -0.145508 -1.52051 -0.288086 -2.26953 -0.429688c-0.706055 -0.132812 -1.40625 -0.263672 -2.10449 -0.394531
c-0.613281 -0.115234 -1.2207 -0.228516 -1.82617 -0.34082c-0.77832 -0.144531 -1.55273 -0.288086 -2.32031 -0.429688c-0.407227 -0.0751953 -0.808594 -0.149414 -1.21289 -0.223633c-16.4023 -3.01758 -30.4541 -5.35742 -41.9082 -6.97559
c-16.8408 -2.37891 -26.2402 -2.97266 -31.9229 -2.71484c-4.54785 0.171875 -6.2373 0.857422 -7.42285 1.34082l-1.25879 0.512695l-17.0635 -41.8486l-18.0576 -44.2852l9.06641 -3.69629c0.000976562 0 0.00195312 -0.000976562 0.00292969 -0.000976562
c10.2393 -4.17578 19.6738 -10.1328 27.8408 -17.5254c3.71191 -3.36133 7.16211 -7.01855 10.3066 -10.9395c3.19238 -3.97949 6.75586 -7.63672 10.627 -10.9258c6.45312 -5.48145 13.7637 -9.93555 21.6357 -13.1455l44.7197 -18.2354l0.0117188 -0.00585938
l95.4951 -38.9385c5.96777 -2.43457 12.7969 0.441406 15.2295 6.4082c2.43262 5.96484 -0.442383 12.7969 -6.40723 15.2305c-0.0712891 0.0273438 -0.135742 0.0644531 -0.204102 0.0947266c-0.0771484 0.0283203 -0.154297 0.0498047 -0.230469 0.0810547
l-71.0762 28.9805c-3.73828 1.52539 -5.5332 5.79199 -4.00879 9.53125c1.52441 3.74023 5.78906 5.53418 9.53027 4.00977l71.0762 -28.9805c0.0732422 -0.0302734 0.142578 -0.0683594 0.21582 -0.101562c0.0712891 -0.0263672 0.144531 -0.046875 0.216797 -0.0751953
l15.4834 -6.31348c3.01953 -1.23242 6.48828 -1.18555 9.51855 0.121094c2.75293 1.18848 4.86133 3.28418 6.00293 5.9209c0.0117188 0.0302734 0.0185547 0.0625 0.0322266 0.0927734c0.0566406 0.135742 0.118164 0.269531 0.179688 0.402344
c0.0732422 0.193359 0.129883 0.388672 0.192383 0.584961c0.0546875 0.171875 0.117188 0.34375 0.163086 0.516602c0.0527344 0.196289 0.0878906 0.393555 0.129883 0.59082c0.0371094 0.177734 0.0820312 0.354492 0.110352 0.532227
c0.0322266 0.194336 0.0488281 0.389648 0.0693359 0.583984c0.0205078 0.181641 0.046875 0.362305 0.0576172 0.542969c0.0126953 0.191406 0.00976562 0.381836 0.0117188 0.571289c0.00195312 0.183594 0.0107422 0.369141 0.00488281 0.551758
c-0.00585938 0.186523 -0.0283203 0.371094 -0.0429688 0.557617c-0.015625 0.18457 -0.0244141 0.371094 -0.0478516 0.554688c-0.0244141 0.183594 -0.0625 0.364258 -0.0957031 0.545898c-0.0322266 0.181641 -0.0585938 0.366211 -0.0996094 0.546875
c-0.0410156 0.179688 -0.0957031 0.353516 -0.144531 0.530273c-0.0498047 0.178711 -0.09375 0.360352 -0.151367 0.537109c-0.0585938 0.175781 -0.129883 0.345703 -0.196289 0.518555c-0.0644531 0.170898 -0.124023 0.345703 -0.197266 0.513672
c-0.0751953 0.174805 -0.166992 0.342773 -0.250977 0.513672c-0.078125 0.15918 -0.150391 0.322266 -0.236328 0.477539c-0.0957031 0.173828 -0.205078 0.338867 -0.30957 0.506836c-0.0898438 0.144531 -0.172852 0.294922 -0.269531 0.436523
c-0.115234 0.169922 -0.245117 0.331055 -0.370117 0.495117c-0.0996094 0.130859 -0.192383 0.265625 -0.296875 0.392578c-0.137695 0.166016 -0.289062 0.321289 -0.436523 0.479492c-0.105469 0.114258 -0.205078 0.234375 -0.31543 0.344727
c-0.160156 0.160156 -0.333984 0.305664 -0.503906 0.457031c-0.111328 0.0976562 -0.214844 0.203125 -0.330078 0.296875c-0.19043 0.15625 -0.395508 0.297852 -0.59668 0.442383c-0.105469 0.0761719 -0.205078 0.160156 -0.314453 0.232422
c-0.227539 0.151367 -0.467773 0.287109 -0.708008 0.423828c-0.09375 0.0527344 -0.182617 0.114258 -0.279297 0.166016c-0.34082 0.180664 -0.693359 0.345703 -1.05859 0.494141l-87.3877 35.6328c-3.74023 1.52441 -5.53516 5.79199 -4.01074 9.53027
c1.52539 3.74023 5.79199 5.53418 9.53027 4.00977l87.3857 -35.6309c0.000976562 0 0.00195312 -0.000976562 0.00292969 -0.000976562c0.00292969 -0.000976562 0.00585938 -0.00292969 0.00976562 -0.00390625
c0.00390625 -0.00195312 0.0078125 -0.00292969 0.0117188 -0.00488281z" />
    <glyph glyph-name="uniF129" unicode="&#xf129;" 
d="M498.51 137.563c10.4062 -10.4062 10.4062 -27.3301 0 -37.7451l-137.589 -137.597l-69.5361 -18.9619l-4.64844 -4.64941c-1.74316 -1.74316 -4.03223 -2.61914 -6.32129 -2.61914c-2.26172 0 -4.51465 0.867188 -6.24902 2.57422l-0.169922 -0.0439453
l0.0449219 0.178711c-3.42383 3.49512 -3.41504 9.0918 0.0537109 12.5605l4.63965 4.63965l18.9619 69.5449l137.598 137.598c10.4062 10.3887 27.3301 10.4062 37.7363 0zM318.34 20.8057l37.9326 -37.9326l91.5732 91.582l-37.9326 37.9248zM310.275 3.58691
l-10.7998 -39.5869l39.5869 10.7998zM485.868 112.469c3.43262 3.43262 3.43262 9.0293 0.00878906 12.4541l-25.4795 25.4785c-3.43262 3.4248 -9.02051 3.43359 -12.4619 -0.00878906l-25.3809 -25.3809l37.9326 -37.9238zM251.53 358.599
c-30.7451 0 -52.8896 -7.48242 -65.835 -22.2246c-15.1445 -17.2637 -12.5078 -38.7646 -12.4805 -38.9795l0.0800781 -1.1709v-49.7959l-2.9502 -2.66406c-3.20898 -2.90625 -4.97949 -6.77734 -4.97949 -10.9346v-31.6924c0 -5.01562 2.57422 -9.66406 6.875 -12.4443
l3.04883 -1.97559l0.813477 -3.54102c7.35742 -32.0146 26.623 -55.3389 26.8115 -55.5625l2.08301 -2.48535v-32.2109c0 -13.8486 -7.55469 -26.5703 -19.7041 -33.2041l-70.6895 -38.5586c-0.313477 -0.178711 -0.625977 -0.348633 -0.948242 -0.536133
c10.7285 -8.15332 22.1357 -15.3057 34.0439 -21.4209c0.331055 -0.160156 0.65332 -0.339844 0.983398 -0.508789c3.6123 -1.83301 7.28613 -3.5498 10.9873 -5.18555c1.78809 -0.787109 3.60352 -1.50195 5.41797 -2.24414
c4.33594 -1.78809 8.73438 -3.43262 13.1865 -4.94434c3.71973 -1.25098 7.46484 -2.45801 11.2822 -3.53125c1.95801 -0.553711 3.93457 -1.07227 5.91016 -1.57324c5.67676 -1.43066 11.4072 -2.75293 17.2725 -3.75488
c0.0175781 0 0.0439453 -0.00878906 0.0625 -0.00878906c4.87207 -0.822266 8.13477 -5.45312 7.30371 -10.3164c-0.750977 -4.35449 -4.52344 -7.42969 -8.80566 -7.42969c-0.500977 0 -1.01074 0.0449219 -1.52051 0.133789
c-6.3916 1.09961 -12.7129 2.53027 -18.9795 4.13086c-2.48535 0.625977 -4.93457 1.34082 -7.39355 2.04688c-3.47754 1.00195 -6.91992 2.08301 -10.3438 3.23633c-3.17383 1.06445 -6.34766 2.11914 -9.45898 3.30762
c-1.49219 0.582031 -2.95898 1.23438 -4.44238 1.8418c-26.4902 10.666 -50.4854 25.6855 -71.2529 44.1914l-2.65527 2.23535l0.107422 0.0888672c-49.2959 45.2012 -79.6836 109.919 -79.6836 181.234c0 135.559 110.285 245.853 245.854 245.853
c135.567 0 245.853 -110.294 245.853 -245.853c0 -4.94434 -4.00488 -8.94043 -8.94043 -8.94043c-4.93457 0 -8.93945 3.99609 -8.93945 8.94043c0 125.706 -102.267 227.973 -227.973 227.973c-125.707 0 -227.973 -102.267 -227.973 -227.973
c0 -66.9707 28.8848 -127.674 75.6152 -169.657c2.2793 1.64551 4.55957 3.11133 6.86621 4.37207l70.6895 38.5586c6.40918 3.50488 10.3877 10.21 10.3877 17.5049v25.873c-5.50684 7.27637 -20.4014 28.751 -27.6426 57.1182
c-7.55469 6.19531 -11.9707 15.377 -11.9707 25.2197v31.6924c0 7.74219 2.84277 15.2705 7.9209 21.1797v41.7236c-0.464844 4.63086 -2.11035 30.8252 16.834 52.4248c16.4766 18.8008 43.1357 28.3223 79.2725 28.3223c36.1357 0 62.8037 -9.52148 79.2715 -28.332
c18.9443 -21.5986 17.2988 -47.7754 16.834 -52.4248v-41.7227c5.07812 -5.91016 7.9209 -13.4375 7.9209 -21.1797v-31.6924c0 -14.3672 -9.30664 -26.8828 -23.1631 -31.165c-4.7207 -1.45703 -9.72754 1.19727 -11.1758 5.90918
c-1.44824 4.7207 1.19824 9.72656 5.91016 11.1836c6.31152 1.94922 10.5576 7.59961 10.5576 14.0723v31.6924c0 4.15723 -1.76953 8.03711 -4.97949 10.9336l-2.9502 2.66406l0.0800781 50.9678c0.0185547 0.178711 2.49512 22.082 -12.6318 39.167
c-12.9541 14.626 -35.0547 22.0459 -65.6738 22.0459z" />
    <glyph glyph-name="uniF10A" unicode="&#xf10a;" 
d="M503.467 -25.5996c4.70996 0 8.5332 -3.81445 8.5332 -8.53418c0 -4.71875 -3.82324 -8.5332 -8.5332 -8.5332h-102.4h-25.5996h-102.4h-25.5996h-102.4h-25.5996h-102.4h-8.5332c-4.70996 0 -8.5332 3.81445 -8.5332 8.5332c0 4.71973 3.82324 8.53418 8.5332 8.53418
h8.5332v119.466h102.4v-119.466h25.5996v196.267h102.4v-196.267h25.5996v264.533h102.4v-264.533h25.5996v332.8h102.4v-332.8zM34.1338 -25.5996h68.2666v102.399h-68.2666v-102.399zM162.134 -25.5996h68.2666v179.199h-68.2666v-179.199zM290.134 -25.5996h68.2666
v247.466h-68.2666v-247.466zM418.134 -25.5996h68.2666v315.733h-68.2666v-315.733zM68.5225 210.518c-2.95215 0 -5.81934 1.52734 -7.39844 4.2666c-2.35449 4.0791 -0.963867 9.30078 3.12305 11.6562l309.471 178.688l-46.5586 4.51367
c-4.68457 0.452148 -8.12305 4.625 -7.66309 9.31836c0.453125 4.67676 4.58301 8.14062 9.31836 7.66309l73.0625 -7.08301c0.230469 -0.0166016 0.410156 -0.144531 0.631836 -0.1875c0.486328 -0.0849609 0.947266 -0.205078 1.41699 -0.375
c0.212891 -0.0771484 0.443359 -0.0605469 0.65625 -0.154297c0.09375 -0.0419922 0.145508 -0.12793 0.239258 -0.169922c0.290039 -0.145508 0.529297 -0.333008 0.793945 -0.503906c0.392578 -0.255859 0.742188 -0.545898 1.0918 -0.862305
c0.255859 -0.229492 0.538086 -0.40918 0.759766 -0.665039c0.212891 -0.239258 0.349609 -0.520508 0.529297 -0.785156c0.135742 -0.196289 0.34082 -0.31543 0.459961 -0.520508c0.120117 -0.205078 0.120117 -0.435547 0.230469 -0.631836
c0.136719 -0.298828 0.316406 -0.554688 0.418945 -0.861328c0.110352 -0.316406 0.12793 -0.648438 0.196289 -0.972656c0.101562 -0.469727 0.178711 -0.913086 0.204102 -1.38281c0.0175781 -0.324219 0.0517578 -0.623047 0.0341797 -0.947266
c-0.00878906 -0.102539 0.0341797 -0.1875 0.0253906 -0.290039c-0.0166016 -0.24707 -0.15332 -0.443359 -0.196289 -0.682617c-0.0849609 -0.477539 -0.212891 -0.913086 -0.375 -1.36523c-0.0771484 -0.22168 -0.0595703 -0.452148 -0.15332 -0.666016l-30.3965 -66.8154
c-1.43359 -3.14062 -4.53027 -5.00098 -7.77344 -5.00098c-1.18652 0 -2.38965 0.239258 -3.5332 0.768555c-4.29199 1.94531 -6.18652 7.00586 -4.23242 11.2979l19.3711 42.5811l-309.495 -178.688c-1.33984 -0.777344 -2.81641 -1.14355 -4.25879 -1.14355z" />
    <glyph glyph-name="uniF111" unicode="&#xf111;" 
d="M0 21.333v56.8896h512v-56.8896h-512zM0 163.555v56.8896h512v-56.8896h-512zM0 305.777v56.8896h512v-56.8896h-512z" />
    <glyph glyph-name="uniF102" unicode="&#xf102;" 
d="M3.94824 -41l485.052 485.052l19.0518 -19.0518l-485.052 -485.052zM80.8418 286.315c-44.584 0 -80.8418 36.2578 -80.8418 80.8428c0 44.584 36.2578 80.8418 80.8418 80.8418c44.585 0 80.8428 -36.2578 80.8428 -80.8418
c0 -44.585 -36.2578 -80.8428 -80.8428 -80.8428zM80.8418 421.053c-29.7227 0 -53.8945 -24.1719 -53.8945 -53.8945c0 -29.7236 24.1719 -53.8955 53.8945 -53.8955c29.7236 0 53.8955 24.1719 53.8955 53.8955c0 29.7227 -24.1719 53.8945 -53.8955 53.8945z
M431.158 97.6846c44.584 0 80.8418 -36.2578 80.8418 -80.8428c0 -44.584 -36.2578 -80.8418 -80.8418 -80.8418c-44.585 0 -80.8428 36.2578 -80.8428 80.8418c0 44.585 36.2578 80.8428 80.8428 80.8428zM431.158 -37.0527c29.7227 0 53.8945 24.1719 53.8945 53.8945
c0 29.7236 -24.1719 53.8955 -53.8945 53.8955c-29.7236 0 -53.8955 -24.1719 -53.8955 -53.8955c0 -29.7227 24.1719 -53.8945 53.8955 -53.8945z" />
    <glyph glyph-name="uniF125" unicode="&#xf125;" 
d="M5.90723 172.308c-3.93848 3.93848 -5.90723 9.84668 -5.90723 13.7852s1.96875 9.8457 5.90723 13.7842l27.5693 27.5693c7.87695 7.87695 19.6924 7.87695 27.5693 0l1.96973 -1.96973l108.308 -116.185c3.93848 -3.93848 9.8457 -3.93848 13.7842 0l263.877 273.724
h1.96973v0c7.87695 7.87695 19.6924 7.87695 27.5693 0l27.5693 -27.5693c7.87598 -7.87695 7.87598 -19.6924 0 -27.5693v0l-315.077 -326.893c-3.93848 -3.93848 -7.87695 -5.90723 -13.7852 -5.90723c-5.90723 0 -9.8457 1.96875 -13.7842 5.90723l-153.601 165.416z" />
    <glyph glyph-name="uniF10E" unicode="&#xf10e;" 
d="M476.158 216.637c20.2646 -3.08496 35.8418 -20.626 35.8408 -41.7373v-85.5117c0 -4.42773 -3.58984 -8.0166 -8.0166 -8.0166h-26.2031c0.00195312 -0.177734 0.0136719 -0.354492 0.0136719 -0.53418c0 -27.9961 -22.7773 -50.7715 -50.7715 -50.7715
c-27.9951 0 -50.7725 22.7754 -50.7725 50.7715c0 0.178711 0.0117188 0.356445 0.0136719 0.53418h-180.67c0.00195312 -0.177734 0.0146484 -0.354492 0.0146484 -0.53418c0 -27.9961 -22.7773 -50.7715 -50.7725 -50.7715s-50.7715 22.7754 -50.7715 50.7715
c0 0.178711 0.0117188 0.356445 0.0136719 0.53418h-43.3037c-9.13672 0 -16.5684 7.43164 -16.5684 16.5684v17.6367h-26.1885c-4.42773 0 -8.0166 3.58887 -8.0166 8.0166c0 4.42871 3.58984 8.01758 8.0166 8.01758h76.96c4.42871 0 8.01758 -3.58887 8.01758 -8.01758
c0 -4.42773 -3.58984 -8.0166 -8.01758 -8.0166h-34.7383v-17.6367c0 -0.295898 0.238281 -0.53418 0.53418 -0.53418h46.0801c6.88574 19.8828 25.7871 34.2051 47.9824 34.2051s41.0957 -14.3223 47.9824 -34.2051h166.327v60.3906
c0 4.42773 3.59082 8.01758 8.01758 8.01758c4.42773 0 8.0166 -3.59082 8.0166 -8.01758v-60.3926h3.86035c6.88477 19.8828 25.7871 34.2051 47.9824 34.2051c22.1943 0 41.0957 -14.3223 47.9814 -34.2051h20.9619v35.2725h-9.08594
c-13.8506 0 -25.1191 11.2686 -25.1191 25.1191v17.1025c0 4.42773 3.58984 8.0166 8.01758 8.0166h24.9277c-3.39453 10.5254 -13.2754 18.1631 -24.9121 18.1709c-0.00683594 0 -0.0136719 -0.000976562 -0.0214844 -0.000976562
s-0.0136719 0.00195312 -0.0214844 0.00195312h-94.5693v-9.08789c0 -4.42773 -3.58984 -8.0166 -8.0166 -8.0166c-4.42773 0 -8.0166 3.58984 -8.0166 8.0166v145.372c0 0.294922 -0.239258 0.53418 -0.53418 0.53418h-307.841
c-0.295898 0 -0.53418 -0.239258 -0.53418 -0.53418v-145.37c0 -4.42773 -3.58984 -8.0166 -8.01758 -8.0166s-8.0166 3.58984 -8.0166 8.0166v145.37c0 9.13574 7.43164 16.5684 16.5684 16.5684h307.842c9.13574 0 16.5674 -7.43262 16.5674 -16.5684v-17.6377h60.3926
c18.5645 0 33.6699 -15.1045 33.6699 -33.6709v-8.55078c0 -3.85254 -2.71973 -7.06836 -6.34473 -7.83887zM375.182 303.699v-18.1709h78.0293v0.533203c0 9.72559 -7.91211 17.6377 -17.6367 17.6377h-60.3926zM375.182 217.119h84.3291l-13.0938 52.376h-71.2354v-52.376
zM144.835 46.0957c19.1553 0 34.7393 15.583 34.7393 34.7393s-15.584 34.7393 -34.7393 34.7393s-34.7393 -15.583 -34.7393 -34.7393s15.584 -34.7393 34.7393 -34.7393zM427.023 46.0957c19.1543 0 34.7383 15.583 34.7383 34.7393s-15.584 34.7393 -34.7383 34.7393
c-19.1553 0 -34.7393 -15.583 -34.7393 -34.7393s15.584 -34.7393 34.7393 -34.7393zM495.967 148.71h-0.000976562v18.1719h-18.1709v-9.08594c0 -5.00977 4.07617 -9.08594 9.08594 -9.08594h9.08594zM144.835 97.4033c9.13574 0 16.5684 -7.43262 16.5684 -16.5684
s-7.43262 -16.5684 -16.5684 -16.5684s-16.5684 7.43262 -16.5684 16.5684s7.43262 16.5684 16.5684 16.5684zM427.023 97.4033c9.13574 0 16.5674 -7.43262 16.5674 -16.5684s-7.43164 -16.5684 -16.5674 -16.5684c-9.13672 0 -16.5684 7.43262 -16.5684 16.5684
s7.43164 16.5684 16.5684 16.5684zM332.96 131.607c4.42773 0 8.0166 -3.58984 8.0166 -8.01758s-3.58984 -8.0166 -8.0166 -8.0166h-119.716c-4.42773 0 -8.01758 3.58887 -8.01758 8.0166s3.59082 8.01758 8.01758 8.01758h119.716zM127.733 165.812
c4.42676 0 8.0166 -3.58887 8.0166 -8.0166s-3.58984 -8.0166 -8.0166 -8.0166h-102.614c-4.42773 0 -8.01758 3.58887 -8.01758 8.0166s3.59082 8.0166 8.01758 8.0166h102.614zM278.771 274.63c3.12988 -3.13086 3.12988 -8.20605 -0.00195312 -11.3379l-76.96 -76.96
c-1.56348 -1.56641 -3.61621 -2.34766 -5.66797 -2.34766c-2.05078 0 -4.10254 0.78125 -5.66797 2.34766l-42.7559 42.7559c-3.13086 3.13086 -3.13086 8.20605 0 11.3369c3.12988 3.13086 8.20605 3.13086 11.3369 0l37.0869 -37.0869l71.292 71.291
c3.13086 3.13086 8.20703 3.13086 11.3379 0.000976562z" />
    <glyph glyph-name="uniF10C" unicode="&#xf10c;" 
d="M506.555 239.936c5.92871 -4.34082 7.2168 -12.6641 2.87402 -18.5918c-2.60547 -3.55957 -6.64746 -5.44434 -10.7441 -5.44434c-2.72754 0 -5.47949 0.834961 -7.84766 2.56934l-234.837 171.943l-234.837 -171.944c-5.92676 -4.33887 -14.252 -3.05273 -18.5928 2.875
c-4.3418 5.92871 -3.05371 14.252 2.875 18.5928l242.697 177.697c4.67871 3.42578 11.0361 3.42578 15.7168 0zM442.246 215.457c7.34668 0 13.3027 -5.95605 13.3037 -13.3037v-225.054c0 -7.34668 -5.95605 -13.3027 -13.3027 -13.3027h-133.029
c-7 0 -12.7266 5.41211 -13.251 12.2793c-0.0322266 0.306641 -0.0517578 0.640625 -0.0517578 1.02344v128.891c0 22.0078 -17.9053 39.9141 -39.9141 39.9141s-39.9141 -17.9053 -39.9141 -39.9141v-128.891c0 -0.384766 -0.0195312 -0.724609 -0.0517578 -1.03516
c-0.530273 -6.8623 -6.25488 -12.2676 -13.251 -12.2676h-133.029c-7.3457 0 -13.3027 5.95605 -13.3027 13.3027v225.054c0 7.34668 5.95703 13.3027 13.3027 13.3027s13.3027 -5.95605 13.3027 -13.3027v-211.749h106.424v115.587
c0 36.6777 29.8418 66.5195 66.5195 66.5195s66.5205 -29.8398 66.5205 -66.5195v-115.586h106.422v211.749c0 7.34668 5.95703 13.3027 13.3027 13.3027z" />
  </font>
</defs></svg>
